ISO-10303-21;
HEADER;
/* Generated by software containing ST-Developer
 * from STEP Tools, Inc. (www.steptools.com) 
 */

FILE_DESCRIPTION(
/* description */ (''),
/* implementation_level */ '2;1');

FILE_NAME(
/* name */ 
'C:\\Users\\pschwitalla\\OneDrive - igus GmbH\\Documents\\190520_Platt
form Tribocut\\01_Instant Quoting\\L\X\D6SUNGEN\\Oroox\\03_CNC calcula
tion\\40_Calculations\\Top Edge Fillets\\TOP EDGE FILLETS_01_R15_long_
v01.stp',
/* time_stamp */ '2022-03-23T10:32:58+01:00',
/* author */ ('pschwitalla'),
/* organization */ ('igus GmbH'),
/* preprocessor_version */ 'ST-DEVELOPER v18.1',
/* originating_system */ 'Autodesk Inventor 2020',
/* authorisation */ '');

FILE_SCHEMA (('AUTOMOTIVE_DESIGN { 1 0 10303 214 3 1 1 }'));
ENDSEC;

DATA;
#10=MECHANICAL_DESIGN_GEOMETRIC_PRESENTATION_REPRESENTATION('',(#13),#218);
#11=SHAPE_REPRESENTATION_RELATIONSHIP('SRR','None',#225,#12);
#12=ADVANCED_BREP_SHAPE_REPRESENTATION('',(#14),#217);
#13=STYLED_ITEM('',(#234),#14);
#14=MANIFOLD_SOLID_BREP('Solid1',#126);
#15=PLANE('',#143);
#16=PLANE('',#144);
#17=PLANE('',#145);
#18=PLANE('',#146);
#19=PLANE('',#147);
#20=PLANE('',#148);
#21=FACE_OUTER_BOUND('',#28,.T.);
#22=FACE_OUTER_BOUND('',#29,.T.);
#23=FACE_OUTER_BOUND('',#30,.T.);
#24=FACE_OUTER_BOUND('',#31,.T.);
#25=FACE_OUTER_BOUND('',#32,.T.);
#26=FACE_OUTER_BOUND('',#33,.T.);
#27=FACE_OUTER_BOUND('',#34,.T.);
#28=EDGE_LOOP('',(#88,#89,#90,#91));
#29=EDGE_LOOP('',(#92,#93,#94,#95));
#30=EDGE_LOOP('',(#96,#97,#98,#99,#100));
#31=EDGE_LOOP('',(#101,#102,#103,#104,#105));
#32=EDGE_LOOP('',(#106,#107,#108,#109));
#33=EDGE_LOOP('',(#110,#111,#112,#113));
#34=EDGE_LOOP('',(#114,#115,#116,#117));
#35=LINE('',#188,#48);
#36=LINE('',#191,#49);
#37=LINE('',#194,#50);
#38=LINE('',#196,#51);
#39=LINE('',#197,#52);
#40=LINE('',#200,#53);
#41=LINE('',#202,#54);
#42=LINE('',#203,#55);
#43=LINE('',#206,#56);
#44=LINE('',#208,#57);
#45=LINE('',#209,#58);
#46=LINE('',#211,#59);
#47=LINE('',#213,#60);
#48=VECTOR('',#155,10.);
#49=VECTOR('',#158,10.);
#50=VECTOR('',#161,10.);
#51=VECTOR('',#162,10.);
#52=VECTOR('',#163,10.);
#53=VECTOR('',#166,10.);
#54=VECTOR('',#167,10.);
#55=VECTOR('',#168,10.);
#56=VECTOR('',#171,10.);
#57=VECTOR('',#172,10.);
#58=VECTOR('',#173,10.);
#59=VECTOR('',#176,10.);
#60=VECTOR('',#179,10.);
#61=CIRCLE('',#141,15.);
#62=CIRCLE('',#142,15.);
#63=VERTEX_POINT('',#184);
#64=VERTEX_POINT('',#185);
#65=VERTEX_POINT('',#187);
#66=VERTEX_POINT('',#189);
#67=VERTEX_POINT('',#193);
#68=VERTEX_POINT('',#195);
#69=VERTEX_POINT('',#199);
#70=VERTEX_POINT('',#201);
#71=VERTEX_POINT('',#205);
#72=VERTEX_POINT('',#207);
#73=EDGE_CURVE('',#63,#64,#61,.T.);
#74=EDGE_CURVE('',#64,#65,#35,.T.);
#75=EDGE_CURVE('',#65,#66,#62,.T.);
#76=EDGE_CURVE('',#66,#63,#36,.T.);
#77=EDGE_CURVE('',#64,#67,#37,.T.);
#78=EDGE_CURVE('',#67,#68,#38,.T.);
#79=EDGE_CURVE('',#68,#65,#39,.T.);
#80=EDGE_CURVE('',#69,#63,#40,.T.);
#81=EDGE_CURVE('',#69,#70,#41,.T.);
#82=EDGE_CURVE('',#70,#67,#42,.T.);
#83=EDGE_CURVE('',#71,#68,#43,.T.);
#84=EDGE_CURVE('',#71,#72,#44,.T.);
#85=EDGE_CURVE('',#72,#66,#45,.T.);
#86=EDGE_CURVE('',#70,#71,#46,.T.);
#87=EDGE_CURVE('',#72,#69,#47,.T.);
#88=ORIENTED_EDGE('',*,*,#73,.T.);
#89=ORIENTED_EDGE('',*,*,#74,.T.);
#90=ORIENTED_EDGE('',*,*,#75,.T.);
#91=ORIENTED_EDGE('',*,*,#76,.T.);
#92=ORIENTED_EDGE('',*,*,#74,.F.);
#93=ORIENTED_EDGE('',*,*,#77,.T.);
#94=ORIENTED_EDGE('',*,*,#78,.T.);
#95=ORIENTED_EDGE('',*,*,#79,.T.);
#96=ORIENTED_EDGE('',*,*,#73,.F.);
#97=ORIENTED_EDGE('',*,*,#80,.F.);
#98=ORIENTED_EDGE('',*,*,#81,.T.);
#99=ORIENTED_EDGE('',*,*,#82,.T.);
#100=ORIENTED_EDGE('',*,*,#77,.F.);
#101=ORIENTED_EDGE('',*,*,#75,.F.);
#102=ORIENTED_EDGE('',*,*,#79,.F.);
#103=ORIENTED_EDGE('',*,*,#83,.F.);
#104=ORIENTED_EDGE('',*,*,#84,.T.);
#105=ORIENTED_EDGE('',*,*,#85,.T.);
#106=ORIENTED_EDGE('',*,*,#86,.T.);
#107=ORIENTED_EDGE('',*,*,#83,.T.);
#108=ORIENTED_EDGE('',*,*,#78,.F.);
#109=ORIENTED_EDGE('',*,*,#82,.F.);
#110=ORIENTED_EDGE('',*,*,#76,.F.);
#111=ORIENTED_EDGE('',*,*,#85,.F.);
#112=ORIENTED_EDGE('',*,*,#87,.T.);
#113=ORIENTED_EDGE('',*,*,#80,.T.);
#114=ORIENTED_EDGE('',*,*,#87,.F.);
#115=ORIENTED_EDGE('',*,*,#84,.F.);
#116=ORIENTED_EDGE('',*,*,#86,.F.);
#117=ORIENTED_EDGE('',*,*,#81,.F.);
#118=CYLINDRICAL_SURFACE('',#140,15.);
#119=ADVANCED_FACE('',(#21),#118,.T.);
#120=ADVANCED_FACE('',(#22),#15,.T.);
#121=ADVANCED_FACE('',(#23),#16,.T.);
#122=ADVANCED_FACE('',(#24),#17,.T.);
#123=ADVANCED_FACE('',(#25),#18,.T.);
#124=ADVANCED_FACE('',(#26),#19,.T.);
#125=ADVANCED_FACE('',(#27),#20,.F.);
#126=CLOSED_SHELL('',(#119,#120,#121,#122,#123,#124,#125));
#127=DERIVED_UNIT_ELEMENT(#129,1.);
#128=DERIVED_UNIT_ELEMENT(#220,3.);
#129=(
MASS_UNIT()
NAMED_UNIT(*)
SI_UNIT($,.GRAM.)
);
#130=DERIVED_UNIT((#127,#128));
#131=MEASURE_REPRESENTATION_ITEM('density measure',
POSITIVE_RATIO_MEASURE(1.),#130);
#132=PROPERTY_DEFINITION_REPRESENTATION(#137,#134);
#133=PROPERTY_DEFINITION_REPRESENTATION(#138,#135);
#134=REPRESENTATION('material name',(#136),#217);
#135=REPRESENTATION('density',(#131),#217);
#136=DESCRIPTIVE_REPRESENTATION_ITEM('Generic','Generic');
#137=PROPERTY_DEFINITION('material property','material name',#227);
#138=PROPERTY_DEFINITION('material property','density of part',#227);
#139=AXIS2_PLACEMENT_3D('placement',#182,#149,#150);
#140=AXIS2_PLACEMENT_3D('',#183,#151,#152);
#141=AXIS2_PLACEMENT_3D('',#186,#153,#154);
#142=AXIS2_PLACEMENT_3D('',#190,#156,#157);
#143=AXIS2_PLACEMENT_3D('',#192,#159,#160);
#144=AXIS2_PLACEMENT_3D('',#198,#164,#165);
#145=AXIS2_PLACEMENT_3D('',#204,#169,#170);
#146=AXIS2_PLACEMENT_3D('',#210,#174,#175);
#147=AXIS2_PLACEMENT_3D('',#212,#177,#178);
#148=AXIS2_PLACEMENT_3D('',#214,#180,#181);
#149=DIRECTION('axis',(0.,0.,1.));
#150=DIRECTION('refdir',(1.,0.,0.));
#151=DIRECTION('center_axis',(-2.368475785867E-16,1.,2.22044604925031E-16));
#152=DIRECTION('ref_axis',(0.707106781186548,2.09345661157837E-16,0.707106781186547));
#153=DIRECTION('center_axis',(0.,-1.,-2.22044604925031E-16));
#154=DIRECTION('ref_axis',(0.707106781186548,2.09345661157837E-16,0.707106781186547));
#155=DIRECTION('',(2.368475785867E-16,-1.,-2.22044604925031E-16));
#156=DIRECTION('center_axis',(-2.96059473233375E-16,1.,2.22044604925031E-16));
#157=DIRECTION('ref_axis',(0.707106781186548,2.09345661157837E-16,0.707106781186547));
#158=DIRECTION('',(-2.368475785867E-16,1.,2.22044604925031E-16));
#159=DIRECTION('center_axis',(0.,-2.22044604925031E-16,1.));
#160=DIRECTION('ref_axis',(0.,-1.,-2.22044604925031E-16));
#161=DIRECTION('',(-1.,0.,0.));
#162=DIRECTION('',(2.96059473233375E-16,-1.,-2.22044604925031E-16));
#163=DIRECTION('',(1.,2.96059473233375E-16,6.57384087684176E-32));
#164=DIRECTION('center_axis',(0.,1.,2.22044604925031E-16));
#165=DIRECTION('ref_axis',(-1.,0.,0.));
#166=DIRECTION('',(0.,-2.22044604925031E-16,1.));
#167=DIRECTION('',(-1.,0.,0.));
#168=DIRECTION('',(0.,-2.22044604925031E-16,1.));
#169=DIRECTION('center_axis',(2.96059473233375E-16,-1.,-2.22044604925031E-16));
#170=DIRECTION('ref_axis',(1.,2.96059473233375E-16,6.57384087684176E-32));
#171=DIRECTION('',(0.,-2.22044604925031E-16,1.));
#172=DIRECTION('',(1.,2.96059473233375E-16,6.57384087684176E-32));
#173=DIRECTION('',(0.,-2.22044604925031E-16,1.));
#174=DIRECTION('center_axis',(-1.,-2.96059473233375E-16,-6.57384087684176E-32));
#175=DIRECTION('ref_axis',(2.96059473233375E-16,-1.,-2.22044604925031E-16));
#176=DIRECTION('',(2.96059473233375E-16,-1.,-2.22044604925031E-16));
#177=DIRECTION('center_axis',(1.,2.368475785867E-16,5.25907270147341E-32));
#178=DIRECTION('ref_axis',(-2.368475785867E-16,1.,2.22044604925031E-16));
#179=DIRECTION('',(-2.368475785867E-16,1.,2.22044604925031E-16));
#180=DIRECTION('center_axis',(0.,-2.22044604925031E-16,1.));
#181=DIRECTION('ref_axis',(0.,-1.,-2.22044604925031E-16));
#182=CARTESIAN_POINT('',(0.,0.,0.));
#183=CARTESIAN_POINT('Origin',(72.6661728291922,-17.5,-52.9985228951256));
#184=CARTESIAN_POINT('',(87.6661728291922,95.,-52.9985228951256));
#185=CARTESIAN_POINT('',(72.6661728291922,95.,-37.9985228951256));
#186=CARTESIAN_POINT('Origin',(72.6661728291922,95.,-52.9985228951256));
#187=CARTESIAN_POINT('',(72.6661728291922,-55.,-37.9985228951256));
#188=CARTESIAN_POINT('',(72.6661728291922,-17.5,-37.9985228951256));
#189=CARTESIAN_POINT('',(87.6661728291922,-55.,-52.9985228951256));
#190=CARTESIAN_POINT('Origin',(72.6661728291922,-55.,-52.9985228951256));
#191=CARTESIAN_POINT('',(87.6661728291922,-17.5,-52.9985228951256));
#192=CARTESIAN_POINT('Origin',(72.6661728291922,20.,-37.9985228951256));
#193=CARTESIAN_POINT('',(57.6661728291922,95.,-37.9985228951256));
#194=CARTESIAN_POINT('',(87.6661728291922,95.,-37.9985228951256));
#195=CARTESIAN_POINT('',(57.6661728291922,-55.,-37.9985228951256));
#196=CARTESIAN_POINT('',(57.6661728291922,95.,-37.9985228951256));
#197=CARTESIAN_POINT('',(57.6661728291922,-55.,-37.9985228951256));
#198=CARTESIAN_POINT('Origin',(87.6661728291922,95.,-57.9985228951256));
#199=CARTESIAN_POINT('',(87.6661728291922,95.,-57.9985228951256));
#200=CARTESIAN_POINT('',(87.6661728291922,95.,-57.9985228951256));
#201=CARTESIAN_POINT('',(57.6661728291922,95.,-57.9985228951256));
#202=CARTESIAN_POINT('',(87.6661728291922,95.,-57.9985228951256));
#203=CARTESIAN_POINT('',(57.6661728291922,95.,-57.9985228951256));
#204=CARTESIAN_POINT('Origin',(57.6661728291922,-55.,-57.9985228951256));
#205=CARTESIAN_POINT('',(57.6661728291922,-55.,-57.9985228951256));
#206=CARTESIAN_POINT('',(57.6661728291922,-55.,-57.9985228951256));
#207=CARTESIAN_POINT('',(87.6661728291922,-55.,-57.9985228951256));
#208=CARTESIAN_POINT('',(57.6661728291922,-55.,-57.9985228951256));
#209=CARTESIAN_POINT('',(87.6661728291922,-55.,-57.9985228951256));
#210=CARTESIAN_POINT('Origin',(57.6661728291922,95.,-57.9985228951256));
#211=CARTESIAN_POINT('',(57.6661728291922,95.,-57.9985228951256));
#212=CARTESIAN_POINT('Origin',(87.6661728291922,-55.,-57.9985228951256));
#213=CARTESIAN_POINT('',(87.6661728291922,-55.,-57.9985228951256));
#214=CARTESIAN_POINT('Origin',(72.6661728291922,20.,-57.9985228951256));
#215=UNCERTAINTY_MEASURE_WITH_UNIT(LENGTH_MEASURE(0.01),#219,
'DISTANCE_ACCURACY_VALUE',
'Maximum model space distance between geometric entities at asserted c
onnectivities');
#216=UNCERTAINTY_MEASURE_WITH_UNIT(LENGTH_MEASURE(0.01),#219,
'DISTANCE_ACCURACY_VALUE',
'Maximum model space distance between geometric entities at asserted c
onnectivities');
#217=(
GEOMETRIC_REPRESENTATION_CONTEXT(3)
GLOBAL_UNCERTAINTY_ASSIGNED_CONTEXT((#215))
GLOBAL_UNIT_ASSIGNED_CONTEXT((#219,#221,#222))
REPRESENTATION_CONTEXT('','3D')
);
#218=(
GEOMETRIC_REPRESENTATION_CONTEXT(3)
GLOBAL_UNCERTAINTY_ASSIGNED_CONTEXT((#216))
GLOBAL_UNIT_ASSIGNED_CONTEXT((#219,#221,#222))
REPRESENTATION_CONTEXT('','3D')
);
#219=(
LENGTH_UNIT()
NAMED_UNIT(*)
SI_UNIT(.MILLI.,.METRE.)
);
#220=(
LENGTH_UNIT()
NAMED_UNIT(*)
SI_UNIT(.CENTI.,.METRE.)
);
#221=(
NAMED_UNIT(*)
PLANE_ANGLE_UNIT()
SI_UNIT($,.RADIAN.)
);
#222=(
NAMED_UNIT(*)
SI_UNIT($,.STERADIAN.)
SOLID_ANGLE_UNIT()
);
#223=SHAPE_DEFINITION_REPRESENTATION(#224,#225);
#224=PRODUCT_DEFINITION_SHAPE('',$,#227);
#225=SHAPE_REPRESENTATION('',(#139),#217);
#226=PRODUCT_DEFINITION_CONTEXT('part definition',#231,'design');
#227=PRODUCT_DEFINITION('01_Chamfer_as Chamfer_big_v01',
'TOP EDGE FILLETS_01_R15_long_v01',#228,#226);
#228=PRODUCT_DEFINITION_FORMATION('',$,#233);
#229=PRODUCT_RELATED_PRODUCT_CATEGORY(
'TOP EDGE FILLETS_01_R15_long_v01','TOP EDGE FILLETS_01_R15_long_v01',(#233));
#230=APPLICATION_PROTOCOL_DEFINITION('international standard',
'automotive_design',2009,#231);
#231=APPLICATION_CONTEXT(
'Core Data for Automotive Mechanical Design Process');
#232=PRODUCT_CONTEXT('part definition',#231,'mechanical');
#233=PRODUCT('01_Chamfer_as Chamfer_big_v01',
'TOP EDGE FILLETS_01_R15_long_v01',$,(#232));
#234=PRESENTATION_STYLE_ASSIGNMENT((#235));
#235=SURFACE_STYLE_USAGE(.BOTH.,#238);
#236=SURFACE_STYLE_RENDERING_WITH_PROPERTIES($,#242,(#237));
#237=SURFACE_STYLE_TRANSPARENT(0.);
#238=SURFACE_SIDE_STYLE('',(#239,#236));
#239=SURFACE_STYLE_FILL_AREA(#240);
#240=FILL_AREA_STYLE('',(#241));
#241=FILL_AREA_STYLE_COLOUR('',#242);
#242=COLOUR_RGB('',0.749019607843137,0.749019607843137,0.749019607843137);
ENDSEC;
END-ISO-10303-21;
