ISO-10303-21;
HEADER;
FILE_DESCRIPTION (( 'STEP AP214' ),
    '1' );
FILE_NAME ('F627941-V2.STEP',
    '2021-03-19T10:05:38',
    ( '' ),
    ( '' ),
    'SwSTEP 2.0',
    'SolidWorks 2020',
    '' );
FILE_SCHEMA (( 'AUTOMOTIVE_DESIGN' ));
ENDSEC;

DATA;
#1 = VERTEX_POINT ( 'NONE', #953 ) ;
#2 = CARTESIAN_POINT ( 'NONE',  ( 21.97754477114070326, 35.00000000000000000, -30.31155485040595110 ) ) ;
#3 = EDGE_CURVE ( 'NONE', #30, #1068, #879, .T. ) ;
#4 = CARTESIAN_POINT ( 'NONE',  ( 136.1273203516745127, 35.00000000000000000, -21.62117494020057151 ) ) ;
#5 = ORIENTED_EDGE ( 'NONE', *, *, #489, .F. ) ;
#6 = VECTOR ( 'NONE', #788, 1000.000000000000000 ) ;
#7 = ORIENTED_EDGE ( 'NONE', *, *, #1032, .F. ) ;
#8 = CARTESIAN_POINT ( 'NONE',  ( 36.99181798607720140, 4.000000000000000000, -18.38649821061130041 ) ) ;
#9 = DIRECTION ( 'NONE',  ( 0.000000000000000000, 1.000000000000000000, 0.000000000000000000 ) ) ;
#10 = DIRECTION ( 'NONE',  ( 0.000000000000000000, 0.000000000000000000, -1.000000000000000000 ) ) ;
#11 = CARTESIAN_POINT ( 'NONE',  ( 36.99181798607720140, 4.000000000000000000, -18.38649821061130041 ) ) ;
#12 = ORIENTED_EDGE ( 'NONE', *, *, #489, .T. ) ;
#13 = ORIENTED_EDGE ( 'NONE', *, *, #653, .F. ) ;
#14 = AXIS2_PLACEMENT_3D ( 'NONE', #595, #612, #437 ) ;
#15 = VERTEX_POINT ( 'NONE', #197 ) ;
#16 = DIRECTION ( 'NONE',  ( 0.000000000000000000, 1.000000000000000000, 0.000000000000000000 ) ) ;
#17 = DIRECTION ( 'NONE',  ( 0.000000000000000000, 1.000000000000000000, 0.000000000000000000 ) ) ;
#18 = DIRECTION ( 'NONE',  ( 0.000000000000000000, 1.000000000000000000, 0.000000000000000000 ) ) ;
#19 =( NAMED_UNIT ( * ) SI_UNIT ( $, .STERADIAN. ) SOLID_ANGLE_UNIT ( ) );
#20 = ORIENTED_EDGE ( 'NONE', *, *, #626, .T. ) ;
#21 = CARTESIAN_POINT ( 'NONE',  ( 140.5584354003083831, 0.000000000000000000, -27.04017808920600174 ) ) ;
#22 = EDGE_CURVE ( 'NONE', #394, #254, #122, .T. ) ;
#23 = ORIENTED_EDGE ( 'NONE', *, *, #135, .F. ) ;
#24 = CARTESIAN_POINT ( 'NONE',  ( 119.9918179860772085, 0.000000000000000000, -17.10331926653759993 ) ) ;
#25 = DIRECTION ( 'NONE',  ( 0.000000000000000000, -1.000000000000000000, 0.000000000000000000 ) ) ;
#26 = FACE_OUTER_BOUND ( 'NONE', #812, .T. ) ;
#27 = DIRECTION ( 'NONE',  ( 0.000000000000000000, 0.000000000000000000, -1.000000000000000000 ) ) ;
#28 = EDGE_LOOP ( 'NONE', ( #229, #742, #359, #418, #622, #427 ) ) ;
#29 = CARTESIAN_POINT ( 'NONE',  ( 36.99181798607720140, 4.000000000000000000, -18.38649821061130041 ) ) ;
#30 = VERTEX_POINT ( 'NONE', #523 ) ;
#31 = CARTESIAN_POINT ( 'NONE',  ( 39.78890433906294533, 0.000000000000000000, -12.75576023537992043 ) ) ;
#32 = PLANE ( 'NONE',  #895 ) ;
#33 = CARTESIAN_POINT ( 'NONE',  ( 113.7151649484685976, 10.00000000000000000, -18.25434739743664991 ) ) ;
#34 = VECTOR ( 'NONE', #950, 1000.000000000000000 ) ;
#35 = ORIENTED_EDGE ( 'NONE', *, *, #851, .T. ) ;
#36 = CARTESIAN_POINT ( 'NONE',  ( 29.84158016506654931, 1.694065894508599908E-18, -35.35547973944839839 ) ) ;
#37 = EDGE_CURVE ( 'NONE', #1051, #515, #584, .T. ) ;
#38 = CARTESIAN_POINT ( 'NONE',  ( -5.645736480115798983, 11.99999999999999289, -22.28425058626542565 ) ) ;
#39 = ORIENTED_EDGE ( 'NONE', *, *, #793, .T. ) ;
#40 = CARTESIAN_POINT ( 'NONE',  ( 116.5685756039490002, 1.694065894508599908E-18, -52.38596554092590196 ) ) ;
#41 = ORIENTED_EDGE ( 'NONE', *, *, #423, .T. ) ;
#42 = EDGE_CURVE ( 'NONE', #862, #205, #285, .T. ) ;
#43 = CARTESIAN_POINT ( 'NONE',  ( 110.4138243642287733, 35.00000000000000000, -38.08729945482865986 ) ) ;
#44 = CARTESIAN_POINT ( 'NONE',  ( 14.30950746251740036, 0.000000000000000000, -28.18422323842025179 ) ) ;
#45 = B_SPLINE_SURFACE_WITH_KNOTS ( 'NONE', 3, 1, ( 
 ( #787, #373 ),
 ( #703, #1041 ),
 ( #617, #961 ),
 ( #203, #880 ) ),
 .UNSPECIFIED., .F., .F., .F.,
 ( 4, 4 ),
 ( 2, 2 ),
 ( 0.000000000000000000, 1.000000000000000000 ),
 ( 0.000000000000000000, 1.000000000000000000 ),
 .UNSPECIFIED. ) ;
#46 = CIRCLE ( 'NONE', #749, 4.250000000000000000 ) ;
#47 = CARTESIAN_POINT ( 'NONE',  ( 31.97077871546264660, 35.00000000000000000, -28.36462561424477613 ) ) ;
#48 = CARTESIAN_POINT ( 'NONE',  ( 65.60213637513665219, 11.99999999999999289, -42.36046739305419351 ) ) ;
#49 = VECTOR ( 'NONE', #190, 1000.000000000000114 ) ;
#50 = CARTESIAN_POINT ( 'NONE',  ( 118.1882245393694149, 35.00000000000000000, -34.06361675314904858 ) ) ;
#51 = CARTESIAN_POINT ( 'NONE',  ( -3.098281051231799310, 11.99999999999999289, -23.62074008545105741 ) ) ;
#52 = EDGE_CURVE ( 'NONE', #254, #56, #88, .T. ) ;
#53 = CYLINDRICAL_SURFACE ( 'NONE', #59, 6.999999999999999112 ) ;
#54 = CARTESIAN_POINT ( 'NONE',  ( 73.85457967273899271, 4.000000000000000000, -26.99100419369279891 ) ) ;
#55 = CARTESIAN_POINT ( 'NONE',  ( 71.17173496019570678, 0.000000000000000000, 58.04222409059540411 ) ) ;
#56 = VERTEX_POINT ( 'NONE', #132 ) ;
#57 = CARTESIAN_POINT ( 'NONE',  ( 136.1273203516745127, 11.99999999999999289, -21.62117494020057151 ) ) ;
#58 = CARTESIAN_POINT ( 'NONE',  ( 42.37670531934457330, 35.00000000000000000, -34.16630182268578864 ) ) ;
#59 = AXIS2_PLACEMENT_3D ( 'NONE', #150, #1044, #623 ) ;
#60 = CARTESIAN_POINT ( 'NONE',  ( 4.940772753776053072, 11.99999999999999289, -21.18291084683468384 ) ) ;
#61 = CARTESIAN_POINT ( 'NONE',  ( -2.519907277703674620, 35.00000000000000000, -30.72398943277805117 ) ) ;
#62 = DIRECTION ( 'NONE',  ( 0.000000000000000000, -1.000000000000000000, 0.000000000000000000 ) ) ;
#63 = ORIENTED_EDGE ( 'NONE', *, *, #86, .T. ) ;
#64 = LINE ( 'NONE', #124, #209 ) ;
#65 = EDGE_CURVE ( 'NONE', #916, #80, #554, .T. ) ;
#66 = EDGE_CURVE ( 'NONE', #269, #264, #84, .T. ) ;
#67 = CIRCLE ( 'NONE', #828, 6.999999999999999112 ) ;
#68 = CARTESIAN_POINT ( 'NONE',  ( 138.1168006239944930, 11.99999999999999289, -20.06548442801185317 ) ) ;
#69 = CARTESIAN_POINT ( 'NONE',  ( 134.8704086482180173, 0.000000000000000000, -20.06548442801185317 ) ) ;
#70 = CARTESIAN_POINT ( 'NONE',  ( 52.60758158420269837, 11.99999999999998934, -38.27228372484385233 ) ) ;
#71 = VERTEX_POINT ( 'NONE', #556 ) ;
#72 = CARTESIAN_POINT ( 'NONE',  ( 69.26267676001209850, 4.000000000000000000, -39.27441480049684941 ) ) ;
#73 = SURFACE_SIDE_STYLE ('',( #913 ) ) ;
#74 = DIRECTION ( 'NONE',  ( 0.000000000000000000, 1.000000000000000000, 0.000000000000000000 ) ) ;
#75 = ORIENTED_EDGE ( 'NONE', *, *, #262, .T. ) ;
#76 = CARTESIAN_POINT ( 'NONE',  ( -3.098281017714822116, 11.99999999999999289, -23.62074007518755181 ) ) ;
#77 = FACE_BOUND ( 'NONE', #832, .T. ) ;
#78 = CIRCLE ( 'NONE', #698, 4.250000000000000000 ) ;
#79 = CARTESIAN_POINT ( 'NONE',  ( 19.87820705242549835, -1.694065894508599908E-18, -14.23403641645374051 ) ) ;
#80 = VERTEX_POINT ( 'NONE', #298 ) ;
#81 = STYLED_ITEM ( 'NONE', ( #104 ), #337 ) ;
#82 = FACE_OUTER_BOUND ( 'NONE', #369, .T. ) ;
#83 = PLANE ( 'NONE',  #414 ) ;
#84 = CIRCLE ( 'NONE', #471, 4.250000000000000000 ) ;
#85 = ORIENTED_EDGE ( 'NONE', *, *, #601, .T. ) ;
#86 = EDGE_CURVE ( 'NONE', #143, #1076, #636, .T. ) ;
#87 = DIRECTION ( 'NONE',  ( 0.000000000000000000, 0.000000000000000000, 1.000000000000000000 ) ) ;
#88 = B_SPLINE_CURVE_WITH_KNOTS ( 'NONE', 3,
 ( #810, #226, #398, #731 ),
 .UNSPECIFIED., .F., .F.,
 ( 4, 4 ),
 ( 0.000000000000000000, 1.000000000000000000 ),
 .UNSPECIFIED. ) ;
#89 = LINE ( 'NONE', #748, #914 ) ;
#90 = CARTESIAN_POINT ( 'NONE',  ( 43.07772060818760451, 4.000000000000000000, -14.92791623613249996 ) ) ;
#91 = ORIENTED_EDGE ( 'NONE', *, *, #65, .F. ) ;
#92 = VERTEX_POINT ( 'NONE', #547 ) ;
#93 = CARTESIAN_POINT ( 'NONE',  ( 8.596168600687681405, 35.00000000000000000, -18.41796711181545021 ) ) ;
#94 = CARTESIAN_POINT ( 'NONE',  ( 61.61016822750769961, 10.00000000000000000, -24.59105592700979770 ) ) ;
#95 = FACE_OUTER_BOUND ( 'NONE', #599, .T. ) ;
#96 = ORIENTED_EDGE ( 'NONE', *, *, #903, .T. ) ;
#97 = AXIS2_PLACEMENT_3D ( 'NONE', #857, #687, #110 ) ;
#98 = ORIENTED_EDGE ( 'NONE', *, *, #463, .T. ) ;
#99 = CARTESIAN_POINT ( 'NONE',  ( 14.30950746251740036, 35.00000000000000000, -28.18422323842025179 ) ) ;
#100 = CARTESIAN_POINT ( 'NONE',  ( 127.6695251407628007, 10.00000000000000000, -15.46649624457390004 ) ) ;
#101 = EDGE_CURVE ( 'NONE', #534, #856, #199, .T. ) ;
#102 = EDGE_CURVE ( 'NONE', #71, #1096, #613, .T. ) ;
#103 = CARTESIAN_POINT ( 'NONE',  ( 0.000000000000000000, 10.00000000000000000, 0.000000000000000000 ) ) ;
#104 = PRESENTATION_STYLE_ASSIGNMENT (( #454 ) ) ;
#105 = ORIENTED_EDGE ( 'NONE', *, *, #602, .T. ) ;
#106 = CARTESIAN_POINT ( 'NONE',  ( 6.570680109621040543, 1.694065894508599908E-18, -28.16819758388074746 ) ) ;
#107 = VECTOR ( 'NONE', #299, 1000.000000000000000 ) ;
#108 = CIRCLE ( 'NONE', #717, 6.999999999999999112 ) ;
#109 = ORIENTED_EDGE ( 'NONE', *, *, #647, .F. ) ;
#110 = DIRECTION ( 'NONE',  ( 0.000000000000000000, 0.000000000000000000, -1.000000000000000000 ) ) ;
#111 = CARTESIAN_POINT ( 'NONE',  ( 132.7488527384209931, 0.000000000000000000, -21.49710688424410066 ) ) ;
#112 = CARTESIAN_POINT ( 'NONE',  ( 17.37623487392630039, 10.00000000000000000, -16.51632716988445182 ) ) ;
#113 =( NAMED_UNIT ( * ) PLANE_ANGLE_UNIT ( ) SI_UNIT ( $, .RADIAN. ) );
#114 = EDGE_LOOP ( 'NONE', ( #91, #7 ) ) ;
#115 = DIRECTION ( 'NONE',  ( 0.000000000000000000, 0.000000000000000000, 1.000000000000000000 ) ) ;
#116 = ORIENTED_EDGE ( 'NONE', *, *, #1056, .T. ) ;
#117 = CARTESIAN_POINT ( 'NONE',  ( 19.87820705242549835, 10.00000000000000000, -14.23403641645374051 ) ) ;
#118 = FILL_AREA_STYLE ('',( #184 ) ) ;
#119 = ORIENTED_EDGE ( 'NONE', *, *, #1080, .F. ) ;
#120 = CARTESIAN_POINT ( 'NONE',  ( 14.30950746251740036, 35.00000000000000000, -28.18422323842025179 ) ) ;
#121 = EDGE_CURVE ( 'NONE', #579, #459, #573, .T. ) ;
#122 = LINE ( 'NONE', #937, #1042 ) ;
#123 = DIRECTION ( 'NONE',  ( 0.000000000000000000, 1.000000000000000000, 0.000000000000000000 ) ) ;
#124 = CARTESIAN_POINT ( 'NONE',  ( 71.17173496019570678, 35.00000000000000000, 58.04222409059540411 ) ) ;
#125 = EDGE_LOOP ( 'NONE', ( #510, #165, #963 ) ) ;
#126 = CARTESIAN_POINT ( 'NONE',  ( 36.99181798607720140, 4.000000000000000000, -22.63649821061130041 ) ) ;
#127 = ORIENTED_EDGE ( 'NONE', *, *, #601, .F. ) ;
#128 = PRODUCT_CONTEXT ( 'NONE', #356, 'mechanical' ) ;
#129 = DIRECTION ( 'NONE',  ( 0.000000000000000000, 0.000000000000000000, 1.000000000000000000 ) ) ;
#130 = DIRECTION ( 'NONE',  ( 0.000000000000000000, 1.000000000000000000, 0.000000000000000000 ) ) ;
#131 = B_SPLINE_SURFACE_WITH_KNOTS ( 'NONE', 3, 1, ( 
 ( #425, #4 ),
 ( #346, #743 ),
 ( #251, #419 ),
 ( #415, #505 ),
 ( #755, #1098 ),
 ( #923, #1091 ),
 ( #1014, #495 ),
 ( #575, #1085 ),
 ( #580, #499 ),
 ( #840, #669 ),
 ( #261, #326 ),
 ( #591, #1009 ),
 ( #256, #586 ),
 ( #934, #928 ),
 ( #172, #847 ),
 ( #657, #177 ),
 ( #512, #919 ),
 ( #404, #739 ),
 ( #1078, #321 ),
 ( #238, #567 ),
 ( #158, #491 ),
 ( #997, #245 ),
 ( #162, #833 ),
 ( #76, #767 ),
 ( #268, #949 ),
 ( #192, #860 ) ),
 .UNSPECIFIED., .F., .F., .F.,
 ( 4, 1, 1, 1, 1, 1, 1, 1, 1, 1, 1, 1, 1, 1, 1, 1, 1, 1, 1, 1, 1, 1, 1, 4 ),
 ( 2, 2 ),
 ( 0.000000000000000000, 0.01562500000000000000, 0.03125000000000000000, 0.06250000000000000000, 0.09375000000000000000, 0.1250000000000000000, 0.1875000000000000000, 0.2500000000000000000, 0.3125000000000000000, 0.3750000000000000000, 0.4375000000000000000, 0.5000000000000000000, 0.6250000000000000000, 0.6875000000000000000, 0.7500000000000000000, 0.7812500000000000000, 0.8125000000000000000, 0.8437500000000000000, 0.8750000000000000000, 0.9062500000000000000, 0.9375000000000000000, 0.9687500000000000000, 0.9843750000000000000, 0.9988444402368683583 ),
 ( 0.000000000000000000, 1.000000000000000000 ),
 .UNSPECIFIED. ) ;
#132 = CARTESIAN_POINT ( 'NONE',  ( 17.37623487392630039, 0.000000000000000000, -16.51632716988445182 ) ) ;
#133 = DIRECTION ( 'NONE',  ( -0.000000000000000000, 1.000000000000000000, 0.000000000000000000 ) ) ;
#134 = DIRECTION ( 'NONE',  ( 0.000000000000000000, 1.000000000000000000, 0.000000000000000000 ) ) ;
#135 = EDGE_CURVE ( 'NONE', #597, #377, #108, .T. ) ;
#136 = EDGE_CURVE ( 'NONE', #597, #1076, #412, .T. ) ;
#137 = CARTESIAN_POINT ( 'NONE',  ( 129.0491486338978007, 11.99999999999999289, -27.06859411533796589 ) ) ;
#138 = AXIS2_PLACEMENT_3D ( 'NONE', #11, #606, #27 ) ;
#139 = CIRCLE ( 'NONE', #529, 6.999999999999999112 ) ;
#140 = AXIS2_PLACEMENT_3D ( 'NONE', #468, #134, #1060 ) ;
#141 = DIRECTION ( 'NONE',  ( 0.000000000000000000, 0.000000000000000000, 1.000000000000000000 ) ) ;
#142 = CARTESIAN_POINT ( 'NONE',  ( 136.1345197572471477, 35.00000000000000000, -21.61554530561781462 ) ) ;
#143 = VERTEX_POINT ( 'NONE', #915 ) ;
#144 = FACE_OUTER_BOUND ( 'NONE', #148, .T. ) ;
#145 = CARTESIAN_POINT ( 'NONE',  ( 65.60213637513665219, 35.00000000000000000, -42.36046739305419351 ) ) ;
#146 = LINE ( 'NONE', #55, #107 ) ;
#147 = DIRECTION ( 'NONE',  ( 0.000000000000000000, 1.000000000000000000, 0.000000000000000000 ) ) ;
#148 = EDGE_LOOP ( 'NONE', ( #616, #728, #35, #503 ) ) ;
#149 = EDGE_CURVE ( 'NONE', #92, #30, #249, .T. ) ;
#150 = CARTESIAN_POINT ( 'NONE',  ( 119.9918179860772085, 10.00000000000000000, -21.35331926653759993 ) ) ;
#151 = AXIS2_PLACEMENT_3D ( 'NONE', #979, #704, #708 ) ;
#152 = LINE ( 'NONE', #227, #388 ) ;
#153 = CARTESIAN_POINT ( 'NONE',  ( 0.000000000000000000, 4.000000000000000000, 0.000000000000000000 ) ) ;
#154 = CARTESIAN_POINT ( 'NONE',  ( 134.8704086482180173, 0.000000000000000000, -20.06548442801185317 ) ) ;
#155 = ORIENTED_EDGE ( 'NONE', *, *, #527, .T. ) ;
#156 = VECTOR ( 'NONE', #985, 1000.000000000000000 ) ;
#157 = VECTOR ( 'NONE', #25, 1000.000000000000000 ) ;
#158 = CARTESIAN_POINT ( 'NONE',  ( 4.940772753776053072, 11.99999999999999289, -21.18291084683468384 ) ) ;
#159 = FACE_BOUND ( 'NONE', #114, .T. ) ;
#160 = DIRECTION ( 'NONE',  ( 0.000000000000000000, 0.000000000000000000, 1.000000000000000000 ) ) ;
#161 = ORIENTED_EDGE ( 'NONE', *, *, #354, .F. ) ;
#162 = CARTESIAN_POINT ( 'NONE',  ( -0.7498894512809478607, 11.99999999999999289, -22.90161981491387877 ) ) ;
#163 = LINE ( 'NONE', #568, #313 ) ;
#164 = CARTESIAN_POINT ( 'NONE',  ( 12.67259622652160012, 10.00000000000000000, -17.86600929579674712 ) ) ;
#165 = ORIENTED_EDGE ( 'NONE', *, *, #263, .T. ) ;
#166 = FACE_BOUND ( 'NONE', #336, .T. ) ;
#167 = CARTESIAN_POINT ( 'NONE',  ( 35.53984529851070562, 10.00000000000000000, -11.53874125562519914 ) ) ;
#168 = EDGE_CURVE ( 'NONE', #1005, #779, #868, .T. ) ;
#169 = DIRECTION ( 'NONE',  ( 0.000000000000000000, 0.000000000000000000, -1.000000000000000000 ) ) ;
#170 = VERTEX_POINT ( 'NONE', #1000 ) ;
#171 = CARTESIAN_POINT ( 'NONE',  ( 6.570680109621040543, 35.00000000000000000, -28.16819758388074746 ) ) ;
#172 = CARTESIAN_POINT ( 'NONE',  ( 23.23544511894395370, 11.99999999999999289, -23.67384150848091551 ) ) ;
#173 = DIRECTION ( 'NONE',  ( 0.000000000000000000, 1.000000000000000000, 0.000000000000000000 ) ) ;
#174 = ORIENTED_EDGE ( 'NONE', *, *, #216, .F. ) ;
#175 = EDGE_LOOP ( 'NONE', ( #699, #358, #592, #371 ) ) ;
#176 = CARTESIAN_POINT ( 'NONE',  ( 69.26267676001209850, 10.00000000000000000, -32.27441480049684941 ) ) ;
#177 = CARTESIAN_POINT ( 'NONE',  ( 18.40431379371372600, 35.00000000000000000, -21.57114392519891055 ) ) ;
#178 = ORIENTED_EDGE ( 'NONE', *, *, #411, .F. ) ;
#179 = ORIENTED_EDGE ( 'NONE', *, *, #136, .F. ) ;
#180 = ADVANCED_FACE ( 'NONE', ( #1095 ), #987, .F. ) ;
#181 = CARTESIAN_POINT ( 'NONE',  ( 119.9918179860772085, 4.000000000000000000, -25.60331926653759993 ) ) ;
#182 = CARTESIAN_POINT ( 'NONE',  ( 24.56245481484645055, 10.00000000000000000, -11.19699363196242103 ) ) ;
#183 = PLANE ( 'NONE',  #188 ) ;
#184 = FILL_AREA_STYLE_COLOUR ( '', #641 ) ;
#185 = ORIENTED_EDGE ( 'NONE', *, *, #42, .T. ) ;
#186 = CARTESIAN_POINT ( 'NONE',  ( 116.5685756039490002, 0.000000000000000000, -52.38596554092590196 ) ) ;
#187 = ORIENTED_EDGE ( 'NONE', *, *, #878, .T. ) ;
#188 = AXIS2_PLACEMENT_3D ( 'NONE', #854, #18, #605 ) ;
#189 = CARTESIAN_POINT ( 'NONE',  ( 134.8704086482180173, 10.00000000000000000, -20.06548442801185317 ) ) ;
#190 = DIRECTION ( 'NONE',  ( -0.3473143558235939343, 0.000000000000000000, 0.9377487607237036116 ) ) ;
#191 = CARTESIAN_POINT ( 'NONE',  ( 127.6695251407628007, 0.000000000000000000, -15.46649624457390004 ) ) ;
#192 = CARTESIAN_POINT ( 'NONE',  ( -4.949225573895008168, 11.99999999999999289, -24.16482972744568514 ) ) ;
#193 = DIRECTION ( 'NONE',  ( 0.9377487607237037226, 0.000000000000000000, 0.3473143558235939898 ) ) ;
#194 = EDGE_LOOP ( 'NONE', ( #498, #960 ) ) ;
#195 = DIRECTION ( 'NONE',  ( -0.7877536236899795874, 0.000000000000000000, -0.6159904450259809927 ) ) ;
#196 = CIRCLE ( 'NONE', #470, 4.250000000000000000 ) ;
#197 = CARTESIAN_POINT ( 'NONE',  ( 36.99181798607720140, 4.000000000000000000, -25.38649821061130041 ) ) ;
#198 = CARTESIAN_POINT ( 'NONE',  ( 37.17398477550215574, 10.00000000000000000, -11.32795447050462023 ) ) ;
#199 = B_SPLINE_CURVE_WITH_KNOTS ( 'NONE', 3,
 ( #213, #545, #892, #54 ),
 .UNSPECIFIED., .F., .F.,
 ( 4, 4 ),
 ( 0.5980565527622969668, 0.6324970966526219929 ),
 .UNSPECIFIED. ) ;
#200 = EDGE_LOOP ( 'NONE', ( #723, #248, #681 ) ) ;
#201 = CARTESIAN_POINT ( 'NONE',  ( 21.97754477114070326, 0.000000000000000000, -30.31155485040595110 ) ) ;
#202 = ORIENTED_EDGE ( 'NONE', *, *, #490, .F. ) ;
#203 = CARTESIAN_POINT ( 'NONE',  ( 17.37623487392630039, 35.00000000000000000, -16.51632716988445182 ) ) ;
#204 = CARTESIAN_POINT ( 'NONE',  ( 35.53984529851070562, 10.00000000000000000, -11.53874125562519914 ) ) ;
#205 = VERTEX_POINT ( 'NONE', #335 ) ;
#206 = DIRECTION ( 'NONE',  ( 0.000000000000000000, -1.000000000000000000, 0.000000000000000000 ) ) ;
#207 = EDGE_CURVE ( 'NONE', #15, #377, #925, .T. ) ;
#208 = ORIENTED_EDGE ( 'NONE', *, *, #634, .T. ) ;
#209 = VECTOR ( 'NONE', #559, 1000.000000000000000 ) ;
#210 = CARTESIAN_POINT ( 'NONE',  ( 69.26267676001209850, 4.000000000000000000, -32.27441480049684941 ) ) ;
#211 = CARTESIAN_POINT ( 'NONE',  ( -2.519907277703674620, 35.00000000000000000, -30.72398943277805117 ) ) ;
#212 = CIRCLE ( 'NONE', #969, 6.999999999999999112 ) ;
#213 = CARTESIAN_POINT ( 'NONE',  ( 66.68180161428510644, 4.000000000000000000, -25.76756583328014827 ) ) ;
#214 = CARTESIAN_POINT ( 'NONE',  ( 110.4138243642287733, 11.99999999999999289, -38.08729945482865986 ) ) ;
#215 = B_SPLINE_SURFACE_WITH_KNOTS ( 'NONE', 3, 1, ( 
 ( #274, #533 ),
 ( #117, #954 ),
 ( #182, #947 ),
 ( #198, #517 ),
 ( #794, #31 ),
 ( #874, #858 ),
 ( #430, #352 ),
 ( #763, #781 ),
 ( #100, #191 ),
 ( #446, #111 ),
 ( #287, #525 ) ),
 .UNSPECIFIED., .F., .F., .F.,
 ( 4, 1, 1, 1, 1, 1, 1, 1, 4 ),
 ( 2, 2 ),
 ( 0.2660997101243640084, 0.3676958649973715021, 0.3897773586493785136, 0.4761216146449850362, 0.5248171963149930175, 0.8280375936794460712, 0.8774058402897429998, 0.9691314158076630436, 1.000000000000000000 ),
 ( 0.000000000000000000, 1.000000000000000000 ),
 .UNSPECIFIED. ) ;
#216 = EDGE_CURVE ( 'NONE', #377, #1030, #355, .T. ) ;
#217 = CARTESIAN_POINT ( 'NONE',  ( 39.82950209459365709, 4.000000000000000000, -12.85594626768198090 ) ) ;
#218 = DIRECTION ( 'NONE',  ( 0.000000000000000000, 1.000000000000000000, 0.000000000000000000 ) ) ;
#219 = CIRCLE ( 'NONE', #948, 6.999999999999999112 ) ;
#220 = SHAPE_DEFINITION_REPRESENTATION ( #973, #337 ) ;
#221 = CARTESIAN_POINT ( 'NONE',  ( -0.7498894512809478607, 35.00000000000000000, -22.90161981491387877 ) ) ;
#222 = CARTESIAN_POINT ( 'NONE',  ( 2.000249667834420819, 11.99999999999999289, -22.04120835167368853 ) ) ;
#223 = MECHANICAL_DESIGN_GEOMETRIC_PRESENTATION_REPRESENTATION (  '', ( #81 ), #1077 ) ;
#224 = EDGE_LOOP ( 'NONE', ( #1038, #314, #185, #508 ) ) ;
#225 = LINE ( 'NONE', #204, #258 ) ;
#226 = CARTESIAN_POINT ( 'NONE',  ( 0.5635211855326679453, 0.000000000000000000, -19.47182345606799814 ) ) ;
#227 = CARTESIAN_POINT ( 'NONE',  ( 71.17173496019570678, 11.99999999999999289, 58.04222409059540411 ) ) ;
#228 = EDGE_CURVE ( 'NONE', #922, #899, #738, .T. ) ;
#229 = ORIENTED_EDGE ( 'NONE', *, *, #572, .F. ) ;
#230 = LINE ( 'NONE', #315, #909 ) ;
#231 = CARTESIAN_POINT ( 'NONE',  ( -0.7498894512809478607, 11.99999999999999289, -22.90161981491387877 ) ) ;
#232 = CARTESIAN_POINT ( 'NONE',  ( 73.85457967273899271, 10.00000000000000000, -26.99100419369279891 ) ) ;
#233 = ADVANCED_FACE ( 'NONE', ( #493 ), #921, .F. ) ;
#234 = CARTESIAN_POINT ( 'NONE',  ( 134.8704086482181879, 11.99999999999999289, -20.06548442801155119 ) ) ;
#235 = ORIENTED_EDGE ( 'NONE', *, *, #301, .F. ) ;
#236 = APPLICATION_CONTEXT ( 'automotive_design' ) ;
#237 = AXIS2_PLACEMENT_3D ( 'NONE', #815, #984, #376 ) ;
#238 = CARTESIAN_POINT ( 'NONE',  ( 7.606628641072677333, 11.99999999999999289, -20.55929059228417799 ) ) ;
#239 = FACE_OUTER_BOUND ( 'NONE', #175, .T. ) ;
#240 = DIRECTION ( 'NONE',  ( 0.000000000000000000, 0.000000000000000000, 1.000000000000000000 ) ) ;
#241 = B_SPLINE_CURVE_WITH_KNOTS ( 'NONE', 3,
 ( #893, #732, #312, #137, #1073, #806, #214, #546, #637, #317, #48, #642, #817, #823, #557, #891, #977, #645, #387, #982, #60, #222, #231, #51, #484, #307 ),
 .UNSPECIFIED., .F., .F.,
 ( 4, 1, 1, 1, 1, 1, 1, 1, 1, 1, 1, 1, 1, 1, 1, 1, 1, 1, 1, 1, 1, 1, 1, 4 ),
 ( 0.000000000000000000, 0.01562500000000000000, 0.03125000000000000000, 0.06250000000000000000, 0.09374999999999998612, 0.1250000000000000000, 0.1874999999999999722, 0.2500000000000000000, 0.3125000000000000000, 0.3749999999999999445, 0.4375000000000000000, 0.5000000000000000000, 0.6250000000000000000, 0.6875000000000000000, 0.7499999999999998890, 0.7812500000000000000, 0.8125000000000000000, 0.8437500000000000000, 0.8750000000000000000, 0.9062500000000000000, 0.9375000000000000000, 0.9687500000000000000, 0.9843750000000000000, 0.9988444411123953426 ),
 .UNSPECIFIED. ) ;
#242 = ORIENTED_EDGE ( 'NONE', *, *, #228, .F. ) ;
#243 = B_SPLINE_CURVE_WITH_KNOTS ( 'NONE', 3,
 ( #500, #400, #733, #246, #1074, #318 ),
 .UNSPECIFIED., .F., .F.,
 ( 4, 1, 1, 4 ),
 ( 0.2660997101243640084, 0.3676958649973715021, 0.3897773586493785136, 0.4077165268652490071 ),
 .UNSPECIFIED. ) ;
#244 = VECTOR ( 'NONE', #62, 1000.000000000000000 ) ;
#245 = CARTESIAN_POINT ( 'NONE',  ( 2.000249667834420819, 35.00000000000000000, -22.04120835167368853 ) ) ;
#246 = CARTESIAN_POINT ( 'NONE',  ( 33.06635221229625188, 10.00000000000000000, -11.28529993084299932 ) ) ;
#247 = CARTESIAN_POINT ( 'NONE',  ( 119.9918179860772085, 10.00000000000000000, -21.35331926653759993 ) ) ;
#248 = ORIENTED_EDGE ( 'NONE', *, *, #288, .T. ) ;
#249 = B_SPLINE_CURVE_WITH_KNOTS ( 'NONE', 3,
 ( #328, #164, #665, #253, #751, #577 ),
 .UNSPECIFIED., .F., .F.,
 ( 4, 1, 1, 4 ),
 ( 0.08517326302778399638, 0.1820088832310775007, 0.2734915569282990178, 1.000000000000000000 ),
 .UNSPECIFIED. ) ;
#250 = EDGE_CURVE ( 'NONE', #56, #1068, #989, .T. ) ;
#251 = CARTESIAN_POINT ( 'NONE',  ( 133.0664770997653648, 11.99999999999999289, -24.05570138193625240 ) ) ;
#252 = FACE_BOUND ( 'NONE', #769, .T. ) ;
#253 = CARTESIAN_POINT ( 'NONE',  ( 52.60758158420269837, 10.00000000000000000, -38.27228372484385233 ) ) ;
#254 = VERTEX_POINT ( 'NONE', #486 ) ;
#255 = DIRECTION ( 'NONE',  ( 0.000000000000000000, 1.000000000000000000, 0.000000000000000000 ) ) ;
#256 = CARTESIAN_POINT ( 'NONE',  ( 42.37670531934457330, 11.99999999999999289, -34.16630182268578864 ) ) ;
#257 = CARTESIAN_POINT ( 'NONE',  ( 136.1345197572471761, 35.00000000000000000, -21.61554530561783594 ) ) ;
#258 = VECTOR ( 'NONE', #403, 1000.000000000000000 ) ;
#259 = ORIENTED_EDGE ( 'NONE', *, *, #37, .F. ) ;
#260 = CARTESIAN_POINT ( 'NONE',  ( 69.26267676001209850, 4.000000000000000000, -32.27441480049684941 ) ) ;
#261 = CARTESIAN_POINT ( 'NONE',  ( 65.60213637513665219, 11.99999999999999289, -42.36046739305419351 ) ) ;
#262 = EDGE_CURVE ( 'NONE', #884, #71, #67, .T. ) ;
#263 = EDGE_CURVE ( 'NONE', #752, #534, #212, .T. ) ;
#264 = VERTEX_POINT ( 'NONE', #695 ) ;
#265 = ORIENTED_EDGE ( 'NONE', *, *, #889, .T. ) ;
#266 = CARTESIAN_POINT ( 'NONE',  ( 18.55481589632899997, 10.00000000000000000, -18.75548575107210070 ) ) ;
#267 = CARTESIAN_POINT ( 'NONE',  ( -2.519907277703674620, 35.00000000000000000, -30.72398943277805117 ) ) ;
#268 = CARTESIAN_POINT ( 'NONE',  ( -4.353595050072783579, 11.99999999999999289, -23.99246800977476823 ) ) ;
#269 = VERTEX_POINT ( 'NONE', #772 ) ;
#270 = CARTESIAN_POINT ( 'NONE',  ( 29.84158016506654931, 0.000000000000000000, -35.35547973944839839 ) ) ;
#271 = ORIENTED_EDGE ( 'NONE', *, *, #168, .F. ) ;
#272 = ORIENTED_EDGE ( 'NONE', *, *, #300, .F. ) ;
#273 = DIRECTION ( 'NONE',  ( 0.000000000000000000, 0.000000000000000000, 1.000000000000000000 ) ) ;
#274 = CARTESIAN_POINT ( 'NONE',  ( 17.37623487392625066, 10.00000000000000000, -16.51632716988445182 ) ) ;
#275 = LINE ( 'NONE', #790, #549 ) ;
#276 = DIRECTION ( 'NONE',  ( 0.3473143558235939343, 0.000000000000000000, -0.9377487607237036116 ) ) ;
#277 = ORIENTED_EDGE ( 'NONE', *, *, #1031, .T. ) ;
#278 = LINE ( 'NONE', #293, #607 ) ;
#279 = AXIS2_PLACEMENT_3D ( 'NONE', #689, #1026, #596 ) ;
#280 = VERTEX_POINT ( 'NONE', #1018 ) ;
#281 = DIRECTION ( 'NONE',  ( 0.000000000000000000, 0.000000000000000000, 1.000000000000000000 ) ) ;
#282 =( GEOMETRIC_REPRESENTATION_CONTEXT ( 3 ) GLOBAL_UNCERTAINTY_ASSIGNED_CONTEXT ( ( #845 ) ) GLOBAL_UNIT_ASSIGNED_CONTEXT ( ( #513, #113, #19 ) ) REPRESENTATION_CONTEXT ( 'NONE', 'WORKASPACE' ) );
#283 = EDGE_LOOP ( 'NONE', ( #13, #413, #286, #272 ) ) ;
#284 = LINE ( 'NONE', #621, #325 ) ;
#285 = CIRCLE ( 'NONE', #1094, 4.250000000000000000 ) ;
#286 = ORIENTED_EDGE ( 'NONE', *, *, #66, .T. ) ;
#287 = CARTESIAN_POINT ( 'NONE',  ( 134.8704086482181879, 10.00000000000000000, -20.06548442801155119 ) ) ;
#288 = EDGE_CURVE ( 'NONE', #1001, #435, #488, .T. ) ;
#289 = B_SPLINE_CURVE_WITH_KNOTS ( 'NONE', 3,
 ( #420, #581, #658, #496, #924 ),
 .UNSPECIFIED., .F., .F.,
 ( 4, 1, 4 ),
 ( 0.8391056469189049905, 0.8774058402897429998, 0.8941210051574610684 ),
 .UNSPECIFIED. ) ;
#290 = CYLINDRICAL_SURFACE ( 'NONE', #138, 4.250000000000000000 ) ;
#291 = LINE ( 'NONE', #483, #1052 ) ;
#292 = ORIENTED_EDGE ( 'NONE', *, *, #52, .F. ) ;
#293 = CARTESIAN_POINT ( 'NONE',  ( 138.1168006239944930, 11.99999999999999289, -20.06548442801185317 ) ) ;
#294 = DIRECTION ( 'NONE',  ( 0.000000000000000000, 0.000000000000000000, 1.000000000000000000 ) ) ;
#295 = LINE ( 'NONE', #378, #992 ) ;
#296 = EDGE_LOOP ( 'NONE', ( #421, #105, #63 ) ) ;
#297 = B_SPLINE_SURFACE_WITH_KNOTS ( 'NONE', 3, 1, ( 
 ( #93, #429 ),
 ( #1013, #516 ),
 ( #927, #266 ),
 ( #1097, #424 ),
 ( #524, #865 ),
 ( #444, #758 ) ),
 .UNSPECIFIED., .F., .F., .F.,
 ( 4, 1, 1, 4 ),
 ( 2, 2 ),
 ( 0.08517326302778399638, 0.1820088832310775007, 0.2734915569282990178, 1.000000000000000000 ),
 ( 0.000000000000000000, 1.000000000000000000 ),
 .UNSPECIFIED. ) ;
#298 = CARTESIAN_POINT ( 'NONE',  ( 36.99181798607720140, 4.000000000000000000, -14.13649821061130041 ) ) ;
#299 = DIRECTION ( 'NONE',  ( -0.6320029724545016547, 0.000000000000000000, 0.7749659623549116638 ) ) ;
#300 = EDGE_CURVE ( 'NONE', #705, #264, #361, .T. ) ;
#301 = EDGE_CURVE ( 'NONE', #1045, #394, #457, .T. ) ;
#302 = VECTOR ( 'NONE', #1055, 1000.000000000000000 ) ;
#303 = DIRECTION ( 'NONE',  ( 1.000000000000000000, 0.000000000000000000, 0.000000000000000000 ) ) ;
#304 = CARTESIAN_POINT ( 'NONE',  ( 135.1201680180087408, 35.00000000000000000, -22.43489820034097093 ) ) ;
#305 = CARTESIAN_POINT ( 'NONE',  ( 36.99181798607720140, 4.000000000000000000, -22.63649821061130041 ) ) ;
#306 = CARTESIAN_POINT ( 'NONE',  ( 18.40431379371372600, 35.00000000000000000, -21.57114392519891055 ) ) ;
#307 = CARTESIAN_POINT ( 'NONE',  ( -4.949225682017489802, 11.99999999999999289, -24.16482975873383054 ) ) ;
#308 = ORIENTED_EDGE ( 'NONE', *, *, #551, .F. ) ;
#309 = CARTESIAN_POINT ( 'NONE',  ( -1.572886454173011650, 11.99999999999998934, -20.43948998411505968 ) ) ;
#310 = EDGE_CURVE ( 'NONE', #597, #329, #685, .T. ) ;
#311 = CARTESIAN_POINT ( 'NONE',  ( -4.353595123113623622, 35.00000000000000000, -23.99246803140387030 ) ) ;
#312 = CARTESIAN_POINT ( 'NONE',  ( 133.0664770997653648, 11.99999999999999289, -24.05570138193625240 ) ) ;
#313 = VECTOR ( 'NONE', #830, 1000.000000000000000 ) ;
#314 = ORIENTED_EDGE ( 'NONE', *, *, #930, .T. ) ;
#315 = CARTESIAN_POINT ( 'NONE',  ( 17.37623487392630039, 10.00000000000000000, -16.51632716988445182 ) ) ;
#316 = ADVANCED_FACE ( 'NONE', ( #604 ), #215, .F. ) ;
#317 = CARTESIAN_POINT ( 'NONE',  ( 77.45569630059736710, 11.99999999999999289, -44.17773260925159917 ) ) ;
#318 = CARTESIAN_POINT ( 'NONE',  ( 35.53984529851070562, 10.00000000000000000, -11.53874125562519914 ) ) ;
#319 = DIRECTION ( 'NONE',  ( 0.000000000000000000, 1.000000000000000000, 0.000000000000000000 ) ) ;
#320 = ORIENTED_EDGE ( 'NONE', *, *, #102, .F. ) ;
#321 = CARTESIAN_POINT ( 'NONE',  ( 10.07687306775240721, 35.00000000000000000, -20.22310764318926246 ) ) ;
#322 = FILL_AREA_STYLE ('',( #409 ) ) ;
#323 = DIRECTION ( 'NONE',  ( 0.000000000000000000, 0.000000000000000000, 1.000000000000000000 ) ) ;
#324 = EDGE_LOOP ( 'NONE', ( #259, #593, #1011, #308, #98 ) ) ;
#325 = VECTOR ( 'NONE', #959, 1000.000000000000000 ) ;
#326 = CARTESIAN_POINT ( 'NONE',  ( 65.60213637513665219, 35.00000000000000000, -42.36046739305419351 ) ) ;
#327 = FACE_BOUND ( 'NONE', #194, .T. ) ;
#328 = CARTESIAN_POINT ( 'NONE',  ( 8.596168448614809776, 10.00000000000000000, -18.41796713240649908 ) ) ;
#329 = VERTEX_POINT ( 'NONE', #853 ) ;
#330 = EDGE_CURVE ( 'NONE', #205, #862, #972, .T. ) ;
#331 = CIRCLE ( 'NONE', #1057, 4.250000000000000000 ) ;
#332 = VECTOR ( 'NONE', #676, 1000.000000000000000 ) ;
#333 = CARTESIAN_POINT ( 'NONE',  ( 134.8704086482180173, 10.00000000000000000, -20.06548442801185317 ) ) ;
#334 = DIRECTION ( 'NONE',  ( 0.000000000000000000, 0.000000000000000000, 1.000000000000000000 ) ) ;
#335 = CARTESIAN_POINT ( 'NONE',  ( 119.9918179860772085, 4.000000000000000000, -25.60331926653759993 ) ) ;
#336 = EDGE_LOOP ( 'NONE', ( #558, #1016 ) ) ;
#337 = ADVANCED_BREP_SHAPE_REPRESENTATION ( 'F627941-V2', ( #1071, #933 ), #1037 ) ;
#338 = PRODUCT_DEFINITION_CONTEXT ( 'detailed design', #236, 'design' ) ;
#339 = CARTESIAN_POINT ( 'NONE',  ( 140.5584354003083831, 35.00000000000000000, -27.04017808920610122 ) ) ;
#340 = FACE_OUTER_BOUND ( 'NONE', #514, .T. ) ;
#341 = CARTESIAN_POINT ( 'NONE',  ( 140.5584354003083831, 35.00000000000000000, -27.04017808920610122 ) ) ;
#342 = ORIENTED_EDGE ( 'NONE', *, *, #228, .T. ) ;
#343 = CARTESIAN_POINT ( 'NONE',  ( 43.07772060818760451, 10.00000000000000000, -14.92791623613249996 ) ) ;
#344 = ADVANCED_FACE ( 'NONE', ( #537 ), #45, .F. ) ;
#345 = EDGE_CURVE ( 'NONE', #926, #922, #1084, .T. ) ;
#346 = CARTESIAN_POINT ( 'NONE',  ( 135.1201680180087408, 11.99999999999999289, -22.43489820034097093 ) ) ;
#347 =( NAMED_UNIT ( * ) SI_UNIT ( $, .STERADIAN. ) SOLID_ANGLE_UNIT ( ) );
#348 = AXIS2_PLACEMENT_3D ( 'NONE', #260, #585, #762 ) ;
#349 = ORIENTED_EDGE ( 'NONE', *, *, #207, .F. ) ;
#350 = ORIENTED_EDGE ( 'NONE', *, *, #3, .F. ) ;
#351 = DIRECTION ( 'NONE',  ( 0.000000000000000000, 1.000000000000000000, 0.000000000000000000 ) ) ;
#352 = CARTESIAN_POINT ( 'NONE',  ( 98.65553920109610431, 0.000000000000000000, -28.53744327882809984 ) ) ;
#353 = FACE_OUTER_BOUND ( 'NONE', #655, .T. ) ;
#354 = EDGE_CURVE ( 'NONE', #1096, #435, #1064, .T. ) ;
#355 = CIRCLE ( 'NONE', #718, 6.999999999999999112 ) ;
#356 = APPLICATION_CONTEXT ( 'automotive_design' ) ;
#357 = EDGE_LOOP ( 'NONE', ( #1062, #39, #1047, #174, #23, #455, #671, #127, #277, #320, #784, #614 ) ) ;
#358 = ORIENTED_EDGE ( 'NONE', *, *, #565, .F. ) ;
#359 = ORIENTED_EDGE ( 'NONE', *, *, #463, .F. ) ;
#360 = LINE ( 'NONE', #946, #49 ) ;
#361 = LINE ( 'NONE', #939, #631 ) ;
#362 = DIRECTION ( 'NONE',  ( 0.000000000000000000, 1.000000000000000000, 0.000000000000000000 ) ) ;
#363 = ORIENTED_EDGE ( 'NONE', *, *, #384, .T. ) ;
#364 = CARTESIAN_POINT ( 'NONE',  ( 121.6833229610022045, 4.000000000000000000, -14.56076371506778067 ) ) ;
#365 = EDGE_LOOP ( 'NONE', ( #292, #620, #583, #882, #434 ) ) ;
#366 = CARTESIAN_POINT ( 'NONE',  ( 119.9918179860772085, 0.000000000000000000, -21.35331926653759993 ) ) ;
#367 = CARTESIAN_POINT ( 'NONE',  ( 119.9918179860772085, 4.000000000000000000, -21.35331926653759993 ) ) ;
#368 = CARTESIAN_POINT ( 'NONE',  ( 11.39588606603910037, 10.00000000000000000, -17.86042600254474877 ) ) ;
#369 = EDGE_LOOP ( 'NONE', ( #208, #407, #563, #873 ) ) ;
#370 = DIRECTION ( 'NONE',  ( 0.000000000000000000, 0.000000000000000000, 1.000000000000000000 ) ) ;
#371 = ORIENTED_EDGE ( 'NONE', *, *, #330, .T. ) ;
#372 = ADVANCED_FACE ( 'NONE', ( #472 ), #458, .T. ) ;
#373 = CARTESIAN_POINT ( 'NONE',  ( -5.645736480116020140, 0.000000000000000000, -22.28425058626475064 ) ) ;
#374 = PRESENTATION_LAYER_ASSIGNMENT (  '', '', ( #792 ) ) ;
#375 =( LENGTH_UNIT ( ) NAMED_UNIT ( * ) SI_UNIT ( .MILLI., .METRE. ) );
#376 = DIRECTION ( 'NONE',  ( 0.000000000000000000, 0.000000000000000000, 1.000000000000000000 ) ) ;
#377 = VERTEX_POINT ( 'NONE', #1070 ) ;
#378 = CARTESIAN_POINT ( 'NONE',  ( 121.6833229610022045, 10.00000000000000000, -14.56076371506778067 ) ) ;
#379 = ORIENTED_EDGE ( 'NONE', *, *, #300, .T. ) ;
#380 = DIRECTION ( 'NONE',  ( 0.000000000000000000, 0.000000000000000000, -1.000000000000000000 ) ) ;
#381 = ORIENTED_EDGE ( 'NONE', *, *, #903, .F. ) ;
#382 = CARTESIAN_POINT ( 'NONE',  ( 140.5584354003083831, 0.000000000000000000, -27.04017808920610122 ) ) ;
#383 = CARTESIAN_POINT ( 'NONE',  ( 124.0732214374896500, 35.00000000000000000, -30.50138797490257403 ) ) ;
#384 = EDGE_CURVE ( 'NONE', #1, #1051, #543, .T. ) ;
#385 = CARTESIAN_POINT ( 'NONE',  ( 8.596168448614809776, 35.00000000000000000, -18.41796713240649908 ) ) ;
#386 = CARTESIAN_POINT ( 'NONE',  ( 36.99181798607720140, 4.000000000000000000, -18.38649821061130041 ) ) ;
#387 = CARTESIAN_POINT ( 'NONE',  ( 10.07687306775240721, 11.99999999999999289, -20.22310764318926246 ) ) ;
#388 = VECTOR ( 'NONE', #722, 1000.000000000000000 ) ;
#389 = CARTESIAN_POINT ( 'NONE',  ( 69.26267676001209850, 4.000000000000000000, -32.27441480049684941 ) ) ;
#390 = CARTESIAN_POINT ( 'NONE',  ( 128.3620687204297894, 10.00000000000000000, -16.28874300847640200 ) ) ;
#391 = CARTESIAN_POINT ( 'NONE',  ( 69.26267676001209850, 10.00000000000000000, -32.27441480049684941 ) ) ;
#392 = CARTESIAN_POINT ( 'NONE',  ( 35.53984529851070562, 4.000000000000000000, -11.53874125562519914 ) ) ;
#393 = DIRECTION ( 'NONE',  ( 0.000000000000000000, 1.000000000000000000, 0.000000000000000000 ) ) ;
#394 = VERTEX_POINT ( 'NONE', #966 ) ;
#395 = VECTOR ( 'NONE', #962, 1000.000000000000000 ) ;
#396 = ADVANCED_FACE ( 'NONE', ( #144 ), #729, .F. ) ;
#397 = FACE_OUTER_BOUND ( 'NONE', #849, .T. ) ;
#398 = CARTESIAN_POINT ( 'NONE',  ( 8.536464812026858695, 0.000000000000000000, -18.71899368520135098 ) ) ;
#399 = CARTESIAN_POINT ( 'NONE',  ( 69.26267676001209850, 0.000000000000000000, -36.52441480049685651 ) ) ;
#400 = CARTESIAN_POINT ( 'NONE',  ( 19.87820705242549835, 10.00000000000000000, -14.23403641645374051 ) ) ;
#401 = CARTESIAN_POINT ( 'NONE',  ( 68.10367916085340312, -1.694065894508599908E-18, -31.19379338268009860 ) ) ;
#402 = ORIENTED_EDGE ( 'NONE', *, *, #653, .T. ) ;
#403 = DIRECTION ( 'NONE',  ( 0.000000000000000000, -1.000000000000000000, 0.000000000000000000 ) ) ;
#404 = CARTESIAN_POINT ( 'NONE',  ( 12.44783754276610210, 11.99999999999999289, -20.20933577300313644 ) ) ;
#405 = DIRECTION ( 'NONE',  ( 0.000000000000000000, 0.000000000000000000, 1.000000000000000000 ) ) ;
#406 = CARTESIAN_POINT ( 'NONE',  ( 24.56245481484645055, -1.694065894508599908E-18, -11.19699363196242103 ) ) ;
#407 = ORIENTED_EDGE ( 'NONE', *, *, #956, .T. ) ;
#408 = FACE_OUTER_BOUND ( 'NONE', #125, .T. ) ;
#409 = FILL_AREA_STYLE_COLOUR ( '', #1069 ) ;
#410 = ADVANCED_FACE ( 'NONE', ( #397 ), #795, .F. ) ;
#411 = EDGE_CURVE ( 'NONE', #1030, #143, #225, .T. ) ;
#412 = LINE ( 'NONE', #654, #244 ) ;
#413 = ORIENTED_EDGE ( 'NONE', *, *, #1080, .T. ) ;
#414 = AXIS2_PLACEMENT_3D ( 'NONE', #744, #1092, #334 ) ;
#415 = CARTESIAN_POINT ( 'NONE',  ( 129.0491486338978007, 11.99999999999999289, -27.06859411533796589 ) ) ;
#416 = DIRECTION ( 'NONE',  ( 0.000000000000000000, 0.000000000000000000, -1.000000000000000000 ) ) ;
#417 = CARTESIAN_POINT ( 'NONE',  ( 37.17398477550215574, -1.694065894508599908E-18, -11.32795447050462023 ) ) ;
#418 = ORIENTED_EDGE ( 'NONE', *, *, #301, .T. ) ;
#419 = CARTESIAN_POINT ( 'NONE',  ( 133.0664770997653648, 35.00000000000000000, -24.05570138193625240 ) ) ;
#420 = CARTESIAN_POINT ( 'NONE',  ( 113.7151649484685976, 4.000000000000000000, -18.25434739743664991 ) ) ;
#421 = ORIENTED_EDGE ( 'NONE', *, *, #850, .T. ) ;
#422 = UNCERTAINTY_MEASURE_WITH_UNIT (LENGTH_MEASURE( 1.000000000000000082E-05 ), #375, 'distance_accuracy_value', 'NONE');
#423 = EDGE_CURVE ( 'NONE', #848, #56, #230, .T. ) ;
#424 = CARTESIAN_POINT ( 'NONE',  ( 52.60758158420269837, 10.00000000000000000, -38.27228372484385233 ) ) ;
#425 = CARTESIAN_POINT ( 'NONE',  ( 136.1273203516745127, 11.99999999999999289, -21.62117494020057151 ) ) ;
#426 =( NAMED_UNIT ( * ) SI_UNIT ( $, .STERADIAN. ) SOLID_ANGLE_UNIT ( ) );
#427 = ORIENTED_EDGE ( 'NONE', *, *, #801, .F. ) ;
#428 = ORIENTED_EDGE ( 'NONE', *, *, #707, .F. ) ;
#429 = CARTESIAN_POINT ( 'NONE',  ( 8.596168600687681405, 10.00000000000000000, -18.41796711181545021 ) ) ;
#430 = CARTESIAN_POINT ( 'NONE',  ( 98.65553920109610431, 10.00000000000000000, -28.53744327882809984 ) ) ;
#431 = CARTESIAN_POINT ( 'NONE',  ( 69.26267676001209850, 4.000000000000000000, -32.27441480049684941 ) ) ;
#432 = CARTESIAN_POINT ( 'NONE',  ( -12.22254469517015885, 35.00000000000000000, -4.526868405618579949 ) ) ;
#433 = ORIENTED_EDGE ( 'NONE', *, *, #135, .T. ) ;
#434 = ORIENTED_EDGE ( 'NONE', *, *, #250, .F. ) ;
#435 = VERTEX_POINT ( 'NONE', #644 ) ;
#436 = CARTESIAN_POINT ( 'NONE',  ( 29.84158016506654931, 35.00000000000000000, -35.35547973944839839 ) ) ;
#437 = DIRECTION ( 'NONE',  ( 0.000000000000000000, 0.000000000000000000, 1.000000000000000000 ) ) ;
#438 = DIRECTION ( 'NONE',  ( 0.000000000000000000, 1.000000000000000000, 0.000000000000000000 ) ) ;
#439 = AXIS2_PLACEMENT_3D ( 'NONE', #667, #780, #273 ) ;
#440 = B_SPLINE_CURVE_WITH_KNOTS ( 'NONE', 3,
 ( #629, #469, #390, #1061, #333 ),
 .UNSPECIFIED., .F., .F.,
 ( 4, 1, 4 ),
 ( 0.8941210051574610684, 0.9691314158076630436, 1.000000000000000000 ),
 .UNSPECIFIED. ) ;
#441 = ORIENTED_EDGE ( 'NONE', *, *, #1031, .F. ) ;
#442 = CARTESIAN_POINT ( 'NONE',  ( 14.30950746251740036, 1.694065894508599908E-18, -28.18422323842025179 ) ) ;
#443 = ORIENTED_EDGE ( 'NONE', *, *, #753, .T. ) ;
#444 = CARTESIAN_POINT ( 'NONE',  ( 134.8704086482181879, 35.00000000000000000, -20.06548442801155119 ) ) ;
#445 = B_SPLINE_CURVE_WITH_KNOTS ( 'NONE', 3,
 ( #460, #106, #442, #450, #36, #952, #40, #382 ),
 .UNSPECIFIED., .F., .F.,
 ( 4, 1, 1, 1, 1, 4 ),
 ( 0.000000000000000000, 0.08293569739394220097, 0.1020612612758750037, 0.1813451524256099734, 0.2721300749373944949, 1.000000000000000000 ),
 .UNSPECIFIED. ) ;
#446 = CARTESIAN_POINT ( 'NONE',  ( 132.7488527384209931, 10.00000000000000000, -21.49710688424410066 ) ) ;
#447 = LINE ( 'NONE', #1036, #859 ) ;
#448 = CARTESIAN_POINT ( 'NONE',  ( 69.26267676001209850, 4.000000000000000000, -28.02441480049684941 ) ) ;
#449 = ORIENTED_EDGE ( 'NONE', *, *, #1056, .F. ) ;
#450 = CARTESIAN_POINT ( 'NONE',  ( 21.97754477114070326, 1.694065894508599908E-18, -30.31155485040595110 ) ) ;
#451 = EDGE_CURVE ( 'NONE', #1027, #1020, #64, .T. ) ;
#452 = EDGE_LOOP ( 'NONE', ( #461, #5, #1023, #778 ) ) ;
#453 = DIRECTION ( 'NONE',  ( 0.000000000000000000, 0.000000000000000000, 1.000000000000000000 ) ) ;
#454 = SURFACE_STYLE_USAGE ( .BOTH. , #861 ) ;
#455 = ORIENTED_EDGE ( 'NONE', *, *, #310, .T. ) ;
#456 = DIRECTION ( 'NONE',  ( 0.000000000000000000, 1.000000000000000000, 0.000000000000000000 ) ) ;
#457 = LINE ( 'NONE', #267, #157 ) ;
#458 = PLANE ( 'NONE',  #237 ) ;
#459 = VERTEX_POINT ( 'NONE', #1048 ) ;
#460 = CARTESIAN_POINT ( 'NONE',  ( -2.519907277703674620, 0.000000000000000000, -30.72398943277805117 ) ) ;
#461 = ORIENTED_EDGE ( 'NONE', *, *, #502, .F. ) ;
#462 = ADVANCED_FACE ( 'NONE', ( #906 ), #53, .F. ) ;
#463 = EDGE_CURVE ( 'NONE', #1045, #515, #291, .T. ) ;
#464 = FACE_OUTER_BOUND ( 'NONE', #553, .T. ) ;
#465 = CARTESIAN_POINT ( 'NONE',  ( 12.44783754276610210, 35.00000000000000000, -20.20933577300313644 ) ) ;
#466 = CARTESIAN_POINT ( 'NONE',  ( 36.99181798607720140, 10.00000000000000000, -18.38649821061130041 ) ) ;
#467 = CIRCLE ( 'NONE', #1088, 6.999999999999999112 ) ;
#468 = CARTESIAN_POINT ( 'NONE',  ( 119.9918179860772085, 10.00000000000000000, -21.35331926653759993 ) ) ;
#469 = CARTESIAN_POINT ( 'NONE',  ( 124.7960557731200026, 10.00000000000000000, -14.13404930633241996 ) ) ;
#470 = AXIS2_PLACEMENT_3D ( 'NONE', #1059, #393, #726 ) ;
#471 = AXIS2_PLACEMENT_3D ( 'NONE', #389, #1054, #141 ) ;
#472 = FACE_OUTER_BOUND ( 'NONE', #324, .T. ) ;
#473 = CARTESIAN_POINT ( 'NONE',  ( 14.89069413190959956, 35.00000000000000000, -20.57569591067307613 ) ) ;
#474 = DIRECTION ( 'NONE',  ( 0.000000000000000000, 1.000000000000000000, 0.000000000000000000 ) ) ;
#475 = EDGE_CURVE ( 'NONE', #329, #534, #736, .T. ) ;
#476 = EDGE_LOOP ( 'NONE', ( #12, #786 ) ) ;
#477 = DIRECTION ( 'NONE',  ( 0.000000000000000000, -1.000000000000000000, 0.000000000000000000 ) ) ;
#478 = DIRECTION ( 'NONE',  ( 0.000000000000000000, 0.000000000000000000, 1.000000000000000000 ) ) ;
#479 = LINE ( 'NONE', #305, #661 ) ;
#480 = CARTESIAN_POINT ( 'NONE',  ( 17.37623487392630039, 0.000000000000000000, -16.51632716988445182 ) ) ;
#481 = ORIENTED_EDGE ( 'NONE', *, *, #878, .F. ) ;
#482 = VECTOR ( 'NONE', #677, 1000.000000000000000 ) ;
#483 = CARTESIAN_POINT ( 'NONE',  ( -12.22254469517015885, 35.00000000000000000, -4.526868405618579949 ) ) ;
#484 = CARTESIAN_POINT ( 'NONE',  ( -4.353595123113604082, 11.99999999999999289, -23.99246803140386675 ) ) ;
#485 = DIRECTION ( 'NONE',  ( 0.000000000000000000, 1.000000000000000000, 0.000000000000000000 ) ) ;
#486 = CARTESIAN_POINT ( 'NONE',  ( -5.645736480116020140, 0.000000000000000000, -22.28425058626475064 ) ) ;
#487 = ORIENTED_EDGE ( 'NONE', *, *, #354, .T. ) ;
#488 = CIRCLE ( 'NONE', #14, 6.999999999999999112 ) ;
#489 = EDGE_CURVE ( 'NONE', #779, #1005, #965, .T. ) ;
#490 = EDGE_CURVE ( 'NONE', #856, #752, #673, .T. ) ;
#491 = CARTESIAN_POINT ( 'NONE',  ( 4.940772753776053072, 35.00000000000000000, -21.18291084683468384 ) ) ;
#492 = CARTESIAN_POINT ( 'NONE',  ( 136.1273203516745127, 35.00000000000000000, -21.62117494020057151 ) ) ;
#493 = FACE_OUTER_BOUND ( 'NONE', #224, .T. ) ;
#494 = ORIENTED_EDGE ( 'NONE', *, *, #1032, .T. ) ;
#495 = CARTESIAN_POINT ( 'NONE',  ( 110.4138243642287733, 35.00000000000000000, -38.08729945482865986 ) ) ;
#496 = CARTESIAN_POINT ( 'NONE',  ( 120.9896880149634057, 4.000000000000000000, -14.65585187191982008 ) ) ;
#497 = CARTESIAN_POINT ( 'NONE',  ( 12.67259622652160012, 11.99999999999998934, -17.86600929579674712 ) ) ;
#498 = ORIENTED_EDGE ( 'NONE', *, *, #565, .T. ) ;
#499 = CARTESIAN_POINT ( 'NONE',  ( 89.20976666296090229, 35.00000000000000000, -44.02878504830635364 ) ) ;
#500 = CARTESIAN_POINT ( 'NONE',  ( 17.37623487392630039, 10.00000000000000000, -16.51632716988445182 ) ) ;
#501 = DIRECTION ( 'NONE',  ( 0.000000000000000000, 1.000000000000000000, 0.000000000000000000 ) ) ;
#502 = EDGE_CURVE ( 'NONE', #1005, #80, #809, .T. ) ;
#503 = ORIENTED_EDGE ( 'NONE', *, *, #475, .T. ) ;
#504 = CARTESIAN_POINT ( 'NONE',  ( -2.519907277703674620, 35.00000000000000000, -30.72398943277805117 ) ) ;
#505 = CARTESIAN_POINT ( 'NONE',  ( 129.0491486338978007, 35.00000000000000000, -27.06859411533796589 ) ) ;
#506 = DIRECTION ( 'NONE',  ( 0.000000000000000000, 1.000000000000000000, 0.000000000000000000 ) ) ;
#507 = PRODUCT_DEFINITION_FORMATION_WITH_SPECIFIED_SOURCE ( 'ANY', '', #888, .NOT_KNOWN. ) ;
#508 = ORIENTED_EDGE ( 'NONE', *, *, #542, .F. ) ;
#509 = ADVANCED_FACE ( 'NONE', ( #1017 ), #297, .F. ) ;
#510 = ORIENTED_EDGE ( 'NONE', *, *, #490, .T. ) ;
#511 = DIRECTION ( 'NONE',  ( 0.000000000000000000, 1.000000000000000000, 0.000000000000000000 ) ) ;
#512 = CARTESIAN_POINT ( 'NONE',  ( 14.89069413190959956, 11.99999999999999289, -20.57569591067307613 ) ) ;
#513 =( LENGTH_UNIT ( ) NAMED_UNIT ( * ) SI_UNIT ( .MILLI., .METRE. ) );
#514 = EDGE_LOOP ( 'NONE', ( #540, #363, #1022, #942 ) ) ;
#515 = VERTEX_POINT ( 'NONE', #1033 ) ;
#516 = CARTESIAN_POINT ( 'NONE',  ( 12.67259622652160012, 10.00000000000000000, -17.86600929579674712 ) ) ;
#517 = CARTESIAN_POINT ( 'NONE',  ( 37.17398477550215574, 0.000000000000000000, -11.32795447050462023 ) ) ;
#518 = PLANE ( 'NONE',  #1035 ) ;
#519 = SURFACE_STYLE_FILL_AREA ( #118 ) ;
#520 = AXIS2_PLACEMENT_3D ( 'NONE', #756, #1010, #652 ) ;
#521 = ORIENTED_EDGE ( 'NONE', *, *, #683, .F. ) ;
#522 = CARTESIAN_POINT ( 'NONE',  ( 140.5584354003083831, 35.00000000000000000, -27.04017808920600174 ) ) ;
#523 = CARTESIAN_POINT ( 'NONE',  ( 134.8704086482180173, 10.00000000000000000, -20.06548442801185317 ) ) ;
#524 = CARTESIAN_POINT ( 'NONE',  ( 92.53668356394719297, 35.00000000000000000, -56.16066545870529580 ) ) ;
#525 = CARTESIAN_POINT ( 'NONE',  ( 134.8704086482181879, 0.000000000000000000, -20.06548442801155119 ) ) ;
#526 = ADVANCED_FACE ( 'NONE', ( #603 ), #672, .F. ) ;
#527 = EDGE_CURVE ( 'NONE', #264, #269, #818, .T. ) ;
#528 = FACE_OUTER_BOUND ( 'NONE', #357, .T. ) ;
#529 = AXIS2_PLACEMENT_3D ( 'NONE', #176, #511, #852 ) ;
#530 = ORIENTED_EDGE ( 'NONE', *, *, #720, .F. ) ;
#531 = FACE_OUTER_BOUND ( 'NONE', #770, .T. ) ;
#532 = DIRECTION ( 'NONE',  ( -0.3473143558235943229, 0.000000000000000000, 0.9377487607237033895 ) ) ;
#533 = CARTESIAN_POINT ( 'NONE',  ( 17.37623487392625066, 0.000000000000000000, -16.51632716988445182 ) ) ;
#534 = VERTEX_POINT ( 'NONE', #1024 ) ;
#535 = CARTESIAN_POINT ( 'NONE',  ( 17.37623487392630039, 10.00000000000000000, -16.51632716988445182 ) ) ;
#536 = ORIENTED_EDGE ( 'NONE', *, *, #42, .F. ) ;
#537 = FACE_OUTER_BOUND ( 'NONE', #827, .T. ) ;
#538 = APPLICATION_PROTOCOL_DEFINITION ( 'draft international standard', 'automotive_design', 1998, #236 ) ;
#539 = CARTESIAN_POINT ( 'NONE',  ( 36.99181798607720140, 0.000000000000000000, -18.38649821061130041 ) ) ;
#540 = ORIENTED_EDGE ( 'NONE', *, *, #626, .F. ) ;
#541 = DIRECTION ( 'NONE',  ( 0.000000000000000000, 0.000000000000000000, 1.000000000000000000 ) ) ;
#542 = EDGE_CURVE ( 'NONE', #459, #205, #938, .T. ) ;
#543 = LINE ( 'NONE', #57, #566 ) ;
#544 = CARTESIAN_POINT ( 'NONE',  ( -2.519907277703674620, 0.000000000000000000, -30.72398943277805117 ) ) ;
#545 = CARTESIAN_POINT ( 'NONE',  ( 69.06671896918601306, 4.000000000000000000, -26.32081538420240108 ) ) ;
#546 = CARTESIAN_POINT ( 'NONE',  ( 100.7789865885640523, 11.99999999999999289, -41.75959788460644972 ) ) ;
#547 = CARTESIAN_POINT ( 'NONE',  ( 8.596168448614809776, 10.00000000000000000, -18.41796713240649908 ) ) ;
#548 = DIRECTION ( 'NONE',  ( 0.000000000000000000, 1.000000000000000000, 0.000000000000000000 ) ) ;
#549 = VECTOR ( 'NONE', #456, 1000.000000000000000 ) ;
#550 = CARTESIAN_POINT ( 'NONE',  ( 23.23544511894395370, 35.00000000000000000, -23.67384150848091551 ) ) ;
#551 = EDGE_CURVE ( 'NONE', #1045, #1027, #826, .T. ) ;
#552 = LINE ( 'NONE', #971, #156 ) ;
#553 = EDGE_LOOP ( 'NONE', ( #768, #235, #776, #876 ) ) ;
#554 = CIRCLE ( 'NONE', #662, 4.250000000000000000 ) ;
#555 = CARTESIAN_POINT ( 'NONE',  ( 3.258783504451975066, 11.99999999999998934, -19.48086419522294932 ) ) ;
#556 = CARTESIAN_POINT ( 'NONE',  ( 119.9918179860772085, 10.00000000000000000, -28.35331926653759993 ) ) ;
#557 = CARTESIAN_POINT ( 'NONE',  ( 23.23544511894395370, 11.99999999999999289, -23.67384150848091551 ) ) ;
#558 = ORIENTED_EDGE ( 'NONE', *, *, #527, .F. ) ;
#559 = DIRECTION ( 'NONE',  ( -0.6320029724545016547, 0.000000000000000000, 0.7749659623549116638 ) ) ;
#560 = LINE ( 'NONE', #907, #571 ) ;
#561 = PLANE ( 'NONE',  #841 ) ;
#562 = DIRECTION ( 'NONE',  ( 0.000000000000000000, 0.000000000000000000, -1.000000000000000000 ) ) ;
#563 = ORIENTED_EDGE ( 'NONE', *, *, #384, .F. ) ;
#564 = EDGE_CURVE ( 'NONE', #951, #1001, #867, .T. ) ;
#565 = EDGE_CURVE ( 'NONE', #459, #579, #331, .T. ) ;
#566 = VECTOR ( 'NONE', #639, 1000.000000000000000 ) ;
#567 = CARTESIAN_POINT ( 'NONE',  ( 7.606628641072677333, 35.00000000000000000, -20.55929059228417799 ) ) ;
#568 = CARTESIAN_POINT ( 'NONE',  ( 134.8704086482180173, 35.00000000000000000, -20.06548442801185317 ) ) ;
#569 = CARTESIAN_POINT ( 'NONE',  ( 36.99181798607720140, 10.00000000000000000, -18.38649821061130041 ) ) ;
#570 = ORIENTED_EDGE ( 'NONE', *, *, #216, .T. ) ;
#571 = VECTOR ( 'NONE', #633, 1000.000000000000000 ) ;
#572 = EDGE_CURVE ( 'NONE', #608, #926, #360, .T. ) ;
#573 = CIRCLE ( 'NONE', #808, 4.250000000000000000 ) ;
#574 = AXIS2_PLACEMENT_3D ( 'NONE', #825, #582, #745 ) ;
#575 = CARTESIAN_POINT ( 'NONE',  ( 100.7789865885640523, 11.99999999999999289, -41.75959788460644972 ) ) ;
#576 = SURFACE_STYLE_USAGE ( .BOTH. , #73 ) ;
#577 = CARTESIAN_POINT ( 'NONE',  ( 134.8704086482180173, 10.00000000000000000, -20.06548442801185317 ) ) ;
#578 = B_SPLINE_CURVE_WITH_KNOTS ( 'NONE', 3,
 ( #940, #368, #696, #112 ),
 .UNSPECIFIED., .F., .F.,
 ( 4, 4 ),
 ( 0.6559318754760540271, 1.000000000000000000 ),
 .UNSPECIFIED. ) ;
#579 = VERTEX_POINT ( 'NONE', #24 ) ;
#580 = CARTESIAN_POINT ( 'NONE',  ( 89.20976666296090229, 11.99999999999999289, -44.02878504830635364 ) ) ;
#581 = CARTESIAN_POINT ( 'NONE',  ( 115.7969347895756016, 4.000000000000000000, -17.02134850310940095 ) ) ;
#582 = DIRECTION ( 'NONE',  ( 0.000000000000000000, 1.000000000000000000, 0.000000000000000000 ) ) ;
#583 = ORIENTED_EDGE ( 'NONE', *, *, #918, .T. ) ;
#584 = B_SPLINE_CURVE_WITH_KNOTS ( 'NONE', 3,
 ( #864, #304, #632, #976, #383, #50, #43, #800, #816, #901, #145, #1072, #58, #47, #550, #306, #473, #465, #890, #711, #980, #714, #221, #1058, #311, #635 ),
 .UNSPECIFIED., .F., .F.,
 ( 4, 1, 1, 1, 1, 1, 1, 1, 1, 1, 1, 1, 1, 1, 1, 1, 1, 1, 1, 1, 1, 1, 1, 4 ),
 ( 0.000000000000000000, 0.01562500000000000000, 0.03125000000000000000, 0.06250000000000000000, 0.09375000000000000000, 0.1250000000000000000, 0.1875000000000000000, 0.2500000000000000000, 0.3125000000000000000, 0.3750000000000000000, 0.4375000000000000000, 0.5000000000000000000, 0.6250000000000000000, 0.6874999999999998890, 0.7500000000000000000, 0.7812500000000000000, 0.8125000000000001110, 0.8437500000000000000, 0.8750000000000000000, 0.9062500000000000000, 0.9374999999999998890, 0.9687500000000000000, 0.9843750000000000000, 0.9988444411123955646 ),
 .UNSPECIFIED. ) ;
#585 = DIRECTION ( 'NONE',  ( 0.000000000000000000, 1.000000000000000000, 0.000000000000000000 ) ) ;
#586 = CARTESIAN_POINT ( 'NONE',  ( 42.37670531934457330, 35.00000000000000000, -34.16630182268578864 ) ) ;
#587 = CYLINDRICAL_SURFACE ( 'NONE', #656, 4.250000000000000000 ) ;
#588 = ADVANCED_FACE ( 'NONE', ( #590 ), #1007, .F. ) ;
#589 = ORIENTED_EDGE ( 'NONE', *, *, #250, .T. ) ;
#590 = FACE_OUTER_BOUND ( 'NONE', #283, .T. ) ;
#591 = CARTESIAN_POINT ( 'NONE',  ( 54.93285071112041607, 11.99999999999999289, -39.29537072927713837 ) ) ;
#592 = ORIENTED_EDGE ( 'NONE', *, *, #542, .T. ) ;
#593 = ORIENTED_EDGE ( 'NONE', *, *, #956, .F. ) ;
#594 = CARTESIAN_POINT ( 'NONE',  ( 36.99181798607720140, 4.000000000000000000, -14.13649821061130041 ) ) ;
#595 = CARTESIAN_POINT ( 'NONE',  ( 119.9918179860772085, 4.000000000000000000, -21.35331926653759993 ) ) ;
#596 = DIRECTION ( 'NONE',  ( 0.6320029724545022098, 0.000000000000000000, -0.7749659623549112197 ) ) ;
#597 = VERTEX_POINT ( 'NONE', #343 ) ;
#598 = CARTESIAN_POINT ( 'NONE',  ( 66.50788145081769187, 0.000000000000000000, -59.04064362079849815 ) ) ;
#599 = EDGE_LOOP ( 'NONE', ( #119, #481, #379, #155 ) ) ;
#600 = ORIENTED_EDGE ( 'NONE', *, *, #801, .T. ) ;
#601 = EDGE_CURVE ( 'NONE', #280, #844, #139, .T. ) ;
#602 = EDGE_CURVE ( 'NONE', #15, #143, #807, .T. ) ;
#603 = FACE_OUTER_BOUND ( 'NONE', #760, .T. ) ;
#604 = FACE_OUTER_BOUND ( 'NONE', #611, .T. ) ;
#605 = DIRECTION ( 'NONE',  ( 0.000000000000000000, -0.000000000000000000, 1.000000000000000000 ) ) ;
#606 = DIRECTION ( 'NONE',  ( 0.000000000000000000, 1.000000000000000000, 0.000000000000000000 ) ) ;
#607 = VECTOR ( 'NONE', #706, 1000.000000000000000 ) ;
#608 = VERTEX_POINT ( 'NONE', #1067 ) ;
#609 = CARTESIAN_POINT ( 'NONE',  ( 69.26267676001209850, 0.000000000000000000, -32.27441480049684941 ) ) ;
#610 = MECHANICAL_DESIGN_GEOMETRIC_PRESENTATION_REPRESENTATION (  '', ( #792 ), #282 ) ;
#611 = EDGE_LOOP ( 'NONE', ( #589, #350, #530, #96, #675, #161, #441, #855, #761, #796, #935, #1090, #1015, #178, #789, #41 ) ) ;
#612 = DIRECTION ( 'NONE',  ( 0.000000000000000000, 1.000000000000000000, 0.000000000000000000 ) ) ;
#613 = CIRCLE ( 'NONE', #140, 6.999999999999999112 ) ;
#614 = ORIENTED_EDGE ( 'NONE', *, *, #720, .T. ) ;
#615 = CARTESIAN_POINT ( 'NONE',  ( 66.50788145081769187, 35.00000000000000000, -59.04064362079849815 ) ) ;
#616 = ORIENTED_EDGE ( 'NONE', *, *, #263, .F. ) ;
#617 = CARTESIAN_POINT ( 'NONE',  ( 8.536464812026858695, 35.00000000000000000, -18.71899368520135098 ) ) ;
#618 = CARTESIAN_POINT ( 'NONE',  ( 66.68180161428510644, 10.00000000000000000, -25.76756583328014827 ) ) ;
#619 = EDGE_CURVE ( 'NONE', #608, #515, #552, .T. ) ;
#620 = ORIENTED_EDGE ( 'NONE', *, *, #22, .F. ) ;
#621 = CARTESIAN_POINT ( 'NONE',  ( 73.85457967273899271, 10.00000000000000000, -26.99100419369279891 ) ) ;
#622 = ORIENTED_EDGE ( 'NONE', *, *, #22, .T. ) ;
#623 = DIRECTION ( 'NONE',  ( 0.000000000000000000, 0.000000000000000000, -1.000000000000000000 ) ) ;
#624 = LINE ( 'NONE', #967, #894 ) ;
#625 = AXIS2_PLACEMENT_3D ( 'NONE', #391, #900, #380 ) ;
#626 = EDGE_CURVE ( 'NONE', #1, #608, #241, .T. ) ;
#627 = VERTEX_POINT ( 'NONE', #897 ) ;
#628 = CARTESIAN_POINT ( 'NONE',  ( 43.07298474836459690, 4.000000000000000000, -14.92489515841022119 ) ) ;
#629 = CARTESIAN_POINT ( 'NONE',  ( 121.6833229610022045, 10.00000000000000000, -14.56076371506778067 ) ) ;
#630 = AXIS2_PLACEMENT_3D ( 'NONE', #68, #829, #674 ) ;
#631 = VECTOR ( 'NONE', #9, 1000.000000000000000 ) ;
#632 = CARTESIAN_POINT ( 'NONE',  ( 133.0664770997653648, 35.00000000000000000, -24.05570138193625240 ) ) ;
#633 = DIRECTION ( 'NONE',  ( 0.000000000000000000, -1.000000000000000000, 0.000000000000000000 ) ) ;
#634 = EDGE_CURVE ( 'NONE', #1040, #1020, #712, .T. ) ;
#635 = CARTESIAN_POINT ( 'NONE',  ( -4.949225682017518224, 35.00000000000000000, -24.16482975873384476 ) ) ;
#636 = B_SPLINE_CURVE_WITH_KNOTS ( 'NONE', 3,
 ( #392, #974, #217, #628, #970 ),
 .UNSPECIFIED., .F., .F.,
 ( 4, 1, 4 ),
 ( 0.4077165268652490071, 0.4761216146449850362, 0.4762215651195479960 ),
 .UNSPECIFIED. ) ;
#637 = CARTESIAN_POINT ( 'NONE',  ( 89.20976666296090229, 11.99999999999999289, -44.02878504830635364 ) ) ;
#638 = ORIENTED_EDGE ( 'NONE', *, *, #647, .T. ) ;
#639 = DIRECTION ( 'NONE',  ( -0.000000000000000000, 1.000000000000000000, -0.000000000000000000 ) ) ;
#640 = CARTESIAN_POINT ( 'NONE',  ( 119.9918179860772085, 4.000000000000000000, -21.35331926653759993 ) ) ;
#641 = COLOUR_RGB ( '',0.7921568627450980005, 0.8196078431372548767, 0.9294117647058823817 ) ;
#642 = CARTESIAN_POINT ( 'NONE',  ( 54.93285071112041607, 11.99999999999999289, -39.29537072927713837 ) ) ;
#643 = ORIENTED_EDGE ( 'NONE', *, *, #648, .F. ) ;
#644 = CARTESIAN_POINT ( 'NONE',  ( 113.7151649484685976, 4.000000000000000000, -18.25434739743664991 ) ) ;
#645 = CARTESIAN_POINT ( 'NONE',  ( 12.44783754276610210, 11.99999999999999289, -20.20933577300313644 ) ) ;
#646 = CARTESIAN_POINT ( 'NONE',  ( 36.99181798607720140, 4.000000000000000000, -18.38649821061130041 ) ) ;
#647 = EDGE_CURVE ( 'NONE', #1040, #899, #152, .T. ) ;
#648 = EDGE_CURVE ( 'NONE', #779, #916, #479, .T. ) ;
#649 = CARTESIAN_POINT ( 'NONE',  ( 127.6695251407628007, -1.694065894508599908E-18, -15.46649624457390004 ) ) ;
#650 = ORIENTED_EDGE ( 'NONE', *, *, #719, .T. ) ;
#651 = PLANE ( 'NONE',  #716 ) ;
#652 = DIRECTION ( 'NONE',  ( 0.000000000000000000, 0.000000000000000000, 1.000000000000000000 ) ) ;
#653 = EDGE_CURVE ( 'NONE', #170, #705, #196, .T. ) ;
#654 = CARTESIAN_POINT ( 'NONE',  ( 43.07772060818760451, 10.00000000000000000, -14.92791623613249996 ) ) ;
#655 = EDGE_LOOP ( 'NONE', ( #978, #638, #116, #1029, #521, #428, #691 ) ) ;
#656 = AXIS2_PLACEMENT_3D ( 'NONE', #1003, #1086, #834 ) ;
#657 = CARTESIAN_POINT ( 'NONE',  ( 18.40431379371372600, 11.99999999999999289, -21.57114392519891055 ) ) ;
#658 = CARTESIAN_POINT ( 'NONE',  ( 118.6108609466674153, 4.000000000000000000, -15.28804832097480038 ) ) ;
#659 = CARTESIAN_POINT ( 'NONE',  ( 36.99181798607720140, 10.00000000000000000, -25.38649821061130041 ) ) ;
#660 = ORIENTED_EDGE ( 'NONE', *, *, #502, .T. ) ;
#661 = VECTOR ( 'NONE', #474, 1000.000000000000000 ) ;
#662 = AXIS2_PLACEMENT_3D ( 'NONE', #386, #721, #805 ) ;
#663 = PLANE ( 'NONE',  #630 ) ;
#664 = FACE_OUTER_BOUND ( 'NONE', #365, .T. ) ;
#665 = CARTESIAN_POINT ( 'NONE',  ( 18.55481589632899997, 10.00000000000000000, -18.75548575107210070 ) ) ;
#666 = EDGE_LOOP ( 'NONE', ( #242, #650, #911, #449 ) ) ;
#667 = CARTESIAN_POINT ( 'NONE',  ( 119.9918179860772085, 4.000000000000000000, -21.35331926653759993 ) ) ;
#668 = ADVANCED_FACE ( 'NONE', ( #715 ), #902, .F. ) ;
#669 = CARTESIAN_POINT ( 'NONE',  ( 77.45569630059736710, 35.00000000000000000, -44.17773260925159917 ) ) ;
#670 = CARTESIAN_POINT ( 'NONE',  ( 113.1135716559602002, 10.00000000000000000, -18.61066145764185009 ) ) ;
#671 = ORIENTED_EDGE ( 'NONE', *, *, #851, .F. ) ;
#672 = CYLINDRICAL_SURFACE ( 'NONE', #97, 4.250000000000000000 ) ;
#673 = CIRCLE ( 'NONE', #764, 6.999999999999999112 ) ;
#674 = DIRECTION ( 'NONE',  ( -0.7877536236899795874, 0.000000000000000000, -0.6159904450259809927 ) ) ;
#675 = ORIENTED_EDGE ( 'NONE', *, *, #1008, .F. ) ;
#676 = DIRECTION ( 'NONE',  ( 0.000000000000000000, -1.000000000000000000, 0.000000000000000000 ) ) ;
#677 = DIRECTION ( 'NONE',  ( 0.000000000000000000, 1.000000000000000000, 0.000000000000000000 ) ) ;
#678 = CARTESIAN_POINT ( 'NONE',  ( 69.26267676001209850, 4.000000000000000000, -32.27441480049684941 ) ) ;
#679 = AXIS2_PLACEMENT_3D ( 'NONE', #904, #319, #562 ) ;
#680 = PLANE ( 'NONE',  #279 ) ;
#681 = ORIENTED_EDGE ( 'NONE', *, *, #1008, .T. ) ;
#682 = CARTESIAN_POINT ( 'NONE',  ( 21.97754477114070326, 35.00000000000000000, -30.31155485040595110 ) ) ;
#683 = EDGE_CURVE ( 'NONE', #627, #1068, #146, .T. ) ;
#684 = ORIENTED_EDGE ( 'NONE', *, *, #411, .T. ) ;
#685 = B_SPLINE_CURVE_WITH_KNOTS ( 'NONE', 3,
 ( #688, #1025, #1034, #94, #866 ),
 .UNSPECIFIED., .F., .F.,
 ( 4, 1, 4 ),
 ( 0.4762215651195479960, 0.5248171963149930175, 0.5980565527622969668 ),
 .UNSPECIFIED. ) ;
#686 = ORIENTED_EDGE ( 'NONE', *, *, #753, .F. ) ;
#687 = DIRECTION ( 'NONE',  ( 0.000000000000000000, 1.000000000000000000, 0.000000000000000000 ) ) ;
#688 = CARTESIAN_POINT ( 'NONE',  ( 43.07772060818760451, 10.00000000000000000, -14.92791623613249996 ) ) ;
#689 = CARTESIAN_POINT ( 'NONE',  ( 71.17173496019570678, 35.00000000000000000, 58.04222409059540411 ) ) ;
#690 = B_SPLINE_CURVE_WITH_KNOTS ( 'NONE', 3,
 ( #232, #920, #998, #670, #929 ),
 .UNSPECIFIED., .F., .F.,
 ( 4, 1, 4 ),
 ( 0.6324970966526219929, 0.8280375936794460712, 0.8391056469189049905 ),
 .UNSPECIFIED. ) ;
#691 = ORIENTED_EDGE ( 'NONE', *, *, #451, .T. ) ;
#692 = CARTESIAN_POINT ( 'NONE',  ( 62.14437317523789517, 35.00000000000000000, -79.47275084546357959 ) ) ;
#693 = ORIENTED_EDGE ( 'NONE', *, *, #52, .T. ) ;
#694 = DIRECTION ( 'NONE',  ( 0.000000000000000000, 0.000000000000000000, -1.000000000000000000 ) ) ;
#695 = CARTESIAN_POINT ( 'NONE',  ( 69.26267676001209850, 4.000000000000000000, -36.52441480049685651 ) ) ;
#696 = CARTESIAN_POINT ( 'NONE',  ( 14.33475176750561886, 10.00000000000000000, -17.27419450676119794 ) ) ;
#697 =( LENGTH_UNIT ( ) NAMED_UNIT ( * ) SI_UNIT ( .MILLI., .METRE. ) );
#698 = AXIS2_PLACEMENT_3D ( 'NONE', #609, #1046, #370 ) ;
#699 = ORIENTED_EDGE ( 'NONE', *, *, #930, .F. ) ;
#700 = CARTESIAN_POINT ( 'NONE',  ( 36.99181798607720140, 10.00000000000000000, -18.38649821061130041 ) ) ;
#701 = PRESENTATION_LAYER_ASSIGNMENT (  '', '', ( #81 ) ) ;
#702 = EDGE_LOOP ( 'NONE', ( #746, #443, #905, #487 ) ) ;
#703 = CARTESIAN_POINT ( 'NONE',  ( 0.5635211855326679453, 35.00000000000000000, -19.47182345606799814 ) ) ;
#704 = DIRECTION ( 'NONE',  ( 0.000000000000000000, 1.000000000000000000, 0.000000000000000000 ) ) ;
#705 = VERTEX_POINT ( 'NONE', #399 ) ;
#706 = DIRECTION ( 'NONE',  ( -0.7877536236899795874, 0.000000000000000000, -0.6159904450259809927 ) ) ;
#707 = EDGE_CURVE ( 'NONE', #1027, #627, #560, .T. ) ;
#708 = DIRECTION ( 'NONE',  ( 0.000000000000000000, 0.000000000000000000, -1.000000000000000000 ) ) ;
#709 = CARTESIAN_POINT ( 'NONE',  ( 8.596168448614820434, 11.99999999999998934, -18.41796713240652750 ) ) ;
#710 = ORIENTED_EDGE ( 'NONE', *, *, #602, .F. ) ;
#711 = CARTESIAN_POINT ( 'NONE',  ( 7.606628641072677333, 35.00000000000000000, -20.55929059228417799 ) ) ;
#712 = LINE ( 'NONE', #142, #955 ) ;
#713 = AXIS2_PLACEMENT_3D ( 'NONE', #367, #123, #453 ) ;
#714 = CARTESIAN_POINT ( 'NONE',  ( 2.000249667834420819, 35.00000000000000000, -22.04120835167368853 ) ) ;
#715 = FACE_OUTER_BOUND ( 'NONE', #988, .T. ) ;
#716 = AXIS2_PLACEMENT_3D ( 'NONE', #990, #1002, #759 ) ;
#717 = AXIS2_PLACEMENT_3D ( 'NONE', #569, #74, #1004 ) ;
#718 = AXIS2_PLACEMENT_3D ( 'NONE', #1089, #147, #160 ) ;
#719 = EDGE_CURVE ( 'NONE', #922, #92, #803, .T. ) ;
#720 = EDGE_CURVE ( 'NONE', #884, #30, #440, .T. ) ;
#721 = DIRECTION ( 'NONE',  ( 0.000000000000000000, 1.000000000000000000, 0.000000000000000000 ) ) ;
#722 = DIRECTION ( 'NONE',  ( -0.6320029724545016547, 0.000000000000000000, 0.7749659623549116638 ) ) ;
#723 = ORIENTED_EDGE ( 'NONE', *, *, #564, .T. ) ;
#724 = CARTESIAN_POINT ( 'NONE',  ( 8.596168448614820434, 11.99999999999998934, -18.41796713240652750 ) ) ;
#725 = CARTESIAN_POINT ( 'NONE',  ( 119.9918179860772085, 0.000000000000000000, -21.35331926653759993 ) ) ;
#726 = DIRECTION ( 'NONE',  ( 0.000000000000000000, 0.000000000000000000, 1.000000000000000000 ) ) ;
#727 = AXIS2_PLACEMENT_3D ( 'NONE', #539, #881, #294 ) ;
#728 = ORIENTED_EDGE ( 'NONE', *, *, #836, .T. ) ;
#729 = CYLINDRICAL_SURFACE ( 'NONE', #625, 6.999999999999999112 ) ;
#730 = ADVANCED_FACE ( 'NONE', ( #82 ), #663, .F. ) ;
#731 = CARTESIAN_POINT ( 'NONE',  ( 17.37623487392630039, 0.000000000000000000, -16.51632716988445182 ) ) ;
#732 = CARTESIAN_POINT ( 'NONE',  ( 135.1201680180087408, 11.99999999999999289, -22.43489820034097093 ) ) ;
#733 = CARTESIAN_POINT ( 'NONE',  ( 24.56245481484645055, 10.00000000000000000, -11.19699363196242103 ) ) ;
#734 = CARTESIAN_POINT ( 'NONE',  ( 98.65553920109610431, -1.694065894508599908E-18, -28.53744327882809984 ) ) ;
#735 = ORIENTED_EDGE ( 'NONE', *, *, #850, .F. ) ;
#736 = LINE ( 'NONE', #618, #395 ) ;
#737 = PRODUCT_RELATED_PRODUCT_CATEGORY ( 'part', '', ( #888 ) ) ;
#738 = B_SPLINE_CURVE_WITH_KNOTS ( 'NONE', 3,
 ( #993, #497, #837, #70, #843, #234 ),
 .UNSPECIFIED., .F., .F.,
 ( 4, 1, 1, 4 ),
 ( 0.000000000000000000, 0.01434853530100142945, 0.02790390232626403094, 0.1355536702526261572 ),
 .UNSPECIFIED. ) ;
#739 = CARTESIAN_POINT ( 'NONE',  ( 12.44783754276610210, 35.00000000000000000, -20.20933577300313644 ) ) ;
#740 = DIRECTION ( 'NONE',  ( 0.000000000000000000, 0.000000000000000000, 1.000000000000000000 ) ) ;
#741 = CARTESIAN_POINT ( 'NONE',  ( 119.9918179860772085, 10.00000000000000000, -21.35331926653759993 ) ) ;
#742 = ORIENTED_EDGE ( 'NONE', *, *, #619, .T. ) ;
#743 = CARTESIAN_POINT ( 'NONE',  ( 135.1201680180087408, 35.00000000000000000, -22.43489820034097093 ) ) ;
#744 = CARTESIAN_POINT ( 'NONE',  ( 0.000000000000000000, 4.000000000000000000, 0.000000000000000000 ) ) ;
#745 = DIRECTION ( 'NONE',  ( 0.000000000000000000, 0.000000000000000000, 1.000000000000000000 ) ) ;
#746 = ORIENTED_EDGE ( 'NONE', *, *, #288, .F. ) ;
#747 = AXIS2_PLACEMENT_3D ( 'NONE', #431, #362, #10 ) ;
#748 = CARTESIAN_POINT ( 'NONE',  ( 119.9918179860772085, 10.00000000000000000, -28.35331926653759993 ) ) ;
#749 = AXIS2_PLACEMENT_3D ( 'NONE', #646, #506, #740 ) ;
#750 = PLANE ( 'NONE',  #520 ) ;
#751 = CARTESIAN_POINT ( 'NONE',  ( 92.53668356394719297, 10.00000000000000000, -56.16066545870529580 ) ) ;
#752 = VERTEX_POINT ( 'NONE', #72 ) ;
#753 = EDGE_CURVE ( 'NONE', #1001, #71, #89, .T. ) ;
#754 = CLOSED_SHELL ( 'NONE', ( #668, #396, #462, #588, #233, #526, #344, #509, #1081, #996, #814, #180, #410, #968, #835, #936, #1087, #372, #981, #316, #813, #765, #1063, #995, #802, #766, #730 ) ) ;
#755 = CARTESIAN_POINT ( 'NONE',  ( 124.0732214374896500, 11.99999999999999289, -30.50138797490257403 ) ) ;
#756 = CARTESIAN_POINT ( 'NONE',  ( 0.000000000000000000, 0.000000000000000000, 0.000000000000000000 ) ) ;
#757 = ORIENTED_EDGE ( 'NONE', *, *, #572, .T. ) ;
#758 = CARTESIAN_POINT ( 'NONE',  ( 134.8704086482181879, 10.00000000000000000, -20.06548442801155119 ) ) ;
#759 = DIRECTION ( 'NONE',  ( 0.000000000000000000, 0.000000000000000000, 1.000000000000000000 ) ) ;
#760 = EDGE_LOOP ( 'NONE', ( #271, #660, #494, #643 ) ) ;
#761 = ORIENTED_EDGE ( 'NONE', *, *, #101, .F. ) ;
#762 = DIRECTION ( 'NONE',  ( 0.000000000000000000, 0.000000000000000000, 1.000000000000000000 ) ) ;
#763 = CARTESIAN_POINT ( 'NONE',  ( 122.0882665221252097, 10.00000000000000000, -12.74994288847786095 ) ) ;
#764 = AXIS2_PLACEMENT_3D ( 'NONE', #210, #886, #129 ) ;
#765 = ADVANCED_FACE ( 'NONE', ( #166, #408 ), #651, .T. ) ;
#766 = ADVANCED_FACE ( 'NONE', ( #340 ), #131, .F. ) ;
#767 = CARTESIAN_POINT ( 'NONE',  ( -3.098281017714822116, 35.00000000000000000, -23.62074007518755181 ) ) ;
#768 = ORIENTED_EDGE ( 'NONE', *, *, #918, .F. ) ;
#769 = EDGE_LOOP ( 'NONE', ( #187, #402 ) ) ;
#770 = EDGE_LOOP ( 'NONE', ( #349, #735, #179, #433 ) ) ;
#771 = CARTESIAN_POINT ( 'NONE',  ( 116.5685756039490002, 35.00000000000000000, -52.38596554092590196 ) ) ;
#772 = CARTESIAN_POINT ( 'NONE',  ( 69.26267676001209850, 4.000000000000000000, -28.02441480049684941 ) ) ;
#773 = AXIS2_PLACEMENT_3D ( 'NONE', #466, #548, #811 ) ;
#774 = CARTESIAN_POINT ( 'NONE',  ( 36.99181798607720140, 0.000000000000000000, -22.63649821061130041 ) ) ;
#775 = PRESENTATION_STYLE_ASSIGNMENT (( #576 ) ) ;
#776 = ORIENTED_EDGE ( 'NONE', *, *, #551, .T. ) ;
#777 = DIRECTION ( 'NONE',  ( 0.000000000000000000, 1.000000000000000000, 0.000000000000000000 ) ) ;
#778 = ORIENTED_EDGE ( 'NONE', *, *, #65, .T. ) ;
#779 = VERTEX_POINT ( 'NONE', #774 ) ;
#780 = DIRECTION ( 'NONE',  ( 0.000000000000000000, 1.000000000000000000, 0.000000000000000000 ) ) ;
#781 = CARTESIAN_POINT ( 'NONE',  ( 122.0882665221252097, 0.000000000000000000, -12.74994288847786095 ) ) ;
#782 = DIRECTION ( 'NONE',  ( 0.000000000000000000, -1.000000000000000000, 0.000000000000000000 ) ) ;
#783 = LINE ( 'NONE', #448, #34 ) ;
#784 = ORIENTED_EDGE ( 'NONE', *, *, #262, .F. ) ;
#785 = CARTESIAN_POINT ( 'NONE',  ( -5.645736480115798983, 11.99999999999999289, -22.28425058626542565 ) ) ;
#786 = ORIENTED_EDGE ( 'NONE', *, *, #168, .T. ) ;
#787 = CARTESIAN_POINT ( 'NONE',  ( -5.645736480116020140, 35.00000000000000000, -22.28425058626475064 ) ) ;
#788 = DIRECTION ( 'NONE',  ( 0.000000000000000000, -1.000000000000000000, 0.000000000000000000 ) ) ;
#789 = ORIENTED_EDGE ( 'NONE', *, *, #1049, .F. ) ;
#790 = CARTESIAN_POINT ( 'NONE',  ( 69.26267676001209850, 10.00000000000000000, -39.27441480049684941 ) ) ;
#791 = EDGE_LOOP ( 'NONE', ( #686, #871, #381, #75 ) ) ;
#792 = STYLED_ITEM ( 'NONE', ( #775 ), #1071 ) ;
#793 = EDGE_CURVE ( 'NONE', #92, #848, #578, .T. ) ;
#794 = CARTESIAN_POINT ( 'NONE',  ( 39.78890433906294533, 10.00000000000000000, -12.75576023537992043 ) ) ;
#795 = CYLINDRICAL_SURFACE ( 'NONE', #151, 6.999999999999999112 ) ;
#796 = ORIENTED_EDGE ( 'NONE', *, *, #475, .F. ) ;
#797 = CARTESIAN_POINT ( 'NONE',  ( 119.9918179860772085, 4.000000000000000000, -17.10331926653759993 ) ) ;
#798 = DIRECTION ( 'NONE',  ( 0.000000000000000000, 0.000000000000000000, 1.000000000000000000 ) ) ;
#799 = CARTESIAN_POINT ( 'NONE',  ( 6.570680109621040543, 0.000000000000000000, -28.16819758388074746 ) ) ;
#800 = CARTESIAN_POINT ( 'NONE',  ( 100.7789865885640523, 35.00000000000000000, -41.75959788460644972 ) ) ;
#801 = EDGE_CURVE ( 'NONE', #926, #254, #447, .T. ) ;
#802 = ADVANCED_FACE ( 'NONE', ( #26 ), #183, .T. ) ;
#803 = LINE ( 'NONE', #385, #302 ) ;
#804 = VECTOR ( 'NONE', #195, 1000.000000000000000 ) ;
#805 = DIRECTION ( 'NONE',  ( 0.000000000000000000, 0.000000000000000000, 1.000000000000000000 ) ) ;
#806 = CARTESIAN_POINT ( 'NONE',  ( 118.1882245393694149, 11.99999999999999289, -34.06361675314904858 ) ) ;
#807 = CIRCLE ( 'NONE', #1093, 6.999999999999999112 ) ;
#808 = AXIS2_PLACEMENT_3D ( 'NONE', #725, #1066, #240 ) ;
#809 = LINE ( 'NONE', #594, #1012 ) ;
#810 = CARTESIAN_POINT ( 'NONE',  ( -5.645736480116020140, 0.000000000000000000, -22.28425058626475064 ) ) ;
#811 = DIRECTION ( 'NONE',  ( 0.000000000000000000, 0.000000000000000000, -1.000000000000000000 ) ) ;
#812 = EDGE_LOOP ( 'NONE', ( #265, #20, #757, #820, #342, #109 ) ) ;
#813 = ADVANCED_FACE ( 'NONE', ( #528 ), #518, .T. ) ;
#814 = ADVANCED_FACE ( 'NONE', ( #95 ), #869, .F. ) ;
#815 = CARTESIAN_POINT ( 'NONE',  ( 0.000000000000000000, 35.00000000000000000, 0.000000000000000000 ) ) ;
#816 = CARTESIAN_POINT ( 'NONE',  ( 89.20976666296090229, 35.00000000000000000, -44.02878504830635364 ) ) ;
#817 = CARTESIAN_POINT ( 'NONE',  ( 42.37670531934457330, 11.99999999999999289, -34.16630182268578864 ) ) ;
#818 = CIRCLE ( 'NONE', #348, 4.250000000000000000 ) ;
#819 = CARTESIAN_POINT ( 'NONE',  ( 39.78890433906294533, -1.694065894508599908E-18, -12.75576023537992043 ) ) ;
#820 = ORIENTED_EDGE ( 'NONE', *, *, #345, .T. ) ;
#821 = PRODUCT_DEFINITION ( 'UNKNOWN', '', #507, #338 ) ;
#822 = DIRECTION ( 'NONE',  ( -0.3473143558235943229, 0.000000000000000000, 0.9377487607237033895 ) ) ;
#823 = CARTESIAN_POINT ( 'NONE',  ( 31.97077871546264660, 11.99999999999999289, -28.36462561424477613 ) ) ;
#824 = CARTESIAN_POINT ( 'NONE',  ( 136.1345197572471477, 11.99999999999999289, -21.61554530561782173 ) ) ;
#825 = CARTESIAN_POINT ( 'NONE',  ( 36.99181798607720140, 0.000000000000000000, -18.38649821061130041 ) ) ;
#826 = B_SPLINE_CURVE_WITH_KNOTS ( 'NONE', 3,
 ( #504, #171, #99, #2, #436, #846, #771, #339 ),
 .UNSPECIFIED., .F., .F.,
 ( 4, 1, 1, 1, 1, 4 ),
 ( 0.000000000000000000, 0.08293569739394220097, 0.1020612612758750037, 0.1813451524256099734, 0.2721300749373944949, 1.000000000000000000 ),
 .UNSPECIFIED. ) ;
#827 = EDGE_LOOP ( 'NONE', ( #931, #600, #693, #994, #983, #838 ) ) ;
#828 = AXIS2_PLACEMENT_3D ( 'NONE', #741, #1082, #323 ) ;
#829 = DIRECTION ( 'NONE',  ( 0.6159904450259809927, 0.000000000000000000, -0.7877536236899795874 ) ) ;
#830 = DIRECTION ( 'NONE',  ( 0.000000000000000000, -1.000000000000000000, 0.000000000000000000 ) ) ;
#831 = DIRECTION ( 'NONE',  ( 0.000000000000000000, 1.000000000000000000, 0.000000000000000000 ) ) ;
#832 = EDGE_LOOP ( 'NONE', ( #958, #536 ) ) ;
#833 = CARTESIAN_POINT ( 'NONE',  ( -0.7498894512809478607, 35.00000000000000000, -22.90161981491387877 ) ) ;
#834 = DIRECTION ( 'NONE',  ( 0.000000000000000000, 0.000000000000000000, -1.000000000000000000 ) ) ;
#835 = ADVANCED_FACE ( 'NONE', ( #353 ), #680, .T. ) ;
#836 = EDGE_CURVE ( 'NONE', #752, #844, #275, .T. ) ;
#837 = CARTESIAN_POINT ( 'NONE',  ( 18.55481589632899997, 11.99999999999998934, -18.75548575107210070 ) ) ;
#838 = ORIENTED_EDGE ( 'NONE', *, *, #719, .F. ) ;
#839 = AXIS2_PLACEMENT_3D ( 'NONE', #700, #173, #416 ) ;
#840 = CARTESIAN_POINT ( 'NONE',  ( 77.45569630059736710, 11.99999999999999289, -44.17773260925159917 ) ) ;
#841 = AXIS2_PLACEMENT_3D ( 'NONE', #153, #485, #405 ) ;
#842 = CARTESIAN_POINT ( 'NONE',  ( 119.9918179860772085, 4.000000000000000000, -28.35331926653759993 ) ) ;
#843 = CARTESIAN_POINT ( 'NONE',  ( 92.53668356394719297, 11.99999999999998934, -56.16066545870529580 ) ) ;
#844 = VERTEX_POINT ( 'NONE', #1039 ) ;
#845 = UNCERTAINTY_MEASURE_WITH_UNIT (LENGTH_MEASURE( 1.000000000000000082E-05 ), #513, 'distance_accuracy_value', 'NONE');
#846 = CARTESIAN_POINT ( 'NONE',  ( 66.50788145081769187, 35.00000000000000000, -59.04064362079849815 ) ) ;
#847 = CARTESIAN_POINT ( 'NONE',  ( 23.23544511894395370, 35.00000000000000000, -23.67384150848091551 ) ) ;
#848 = VERTEX_POINT ( 'NONE', #535 ) ;
#849 = EDGE_LOOP ( 'NONE', ( #945, #202, #1083, #85 ) ) ;
#850 = EDGE_CURVE ( 'NONE', #1076, #15, #219, .T. ) ;
#851 = EDGE_CURVE ( 'NONE', #844, #329, #467, .T. ) ;
#852 = DIRECTION ( 'NONE',  ( 0.000000000000000000, 0.000000000000000000, 1.000000000000000000 ) ) ;
#853 = CARTESIAN_POINT ( 'NONE',  ( 66.68180161428510644, 10.00000000000000000, -25.76756583328014827 ) ) ;
#854 = CARTESIAN_POINT ( 'NONE',  ( 45.69492656627968330, 11.99999999999999289, -35.39251844084614618 ) ) ;
#855 = ORIENTED_EDGE ( 'NONE', *, *, #898, .T. ) ;
#856 = VERTEX_POINT ( 'NONE', #863 ) ;
#857 = CARTESIAN_POINT ( 'NONE',  ( 36.99181798607720140, 4.000000000000000000, -18.38649821061130041 ) ) ;
#858 = CARTESIAN_POINT ( 'NONE',  ( 68.10367916085340312, 0.000000000000000000, -31.19379338268009860 ) ) ;
#859 = VECTOR ( 'NONE', #782, 1000.000000000000000 ) ;
#860 = CARTESIAN_POINT ( 'NONE',  ( -4.949225573895008168, 35.00000000000000000, -24.16482972744568514 ) ) ;
#861 = SURFACE_SIDE_STYLE ('',( #519 ) ) ;
#862 = VERTEX_POINT ( 'NONE', #797 ) ;
#863 = CARTESIAN_POINT ( 'NONE',  ( 73.85457967273899271, 4.000000000000000000, -26.99100419369279891 ) ) ;
#864 = CARTESIAN_POINT ( 'NONE',  ( 136.1273203516745127, 35.00000000000000000, -21.62117494020057151 ) ) ;
#865 = CARTESIAN_POINT ( 'NONE',  ( 92.53668356394719297, 10.00000000000000000, -56.16066545870529580 ) ) ;
#866 = CARTESIAN_POINT ( 'NONE',  ( 66.68180161428510644, 10.00000000000000000, -25.76756583328014827 ) ) ;
#867 = CIRCLE ( 'NONE', #439, 6.999999999999999112 ) ;
#868 = CIRCLE ( 'NONE', #574, 4.250000000000000000 ) ;
#869 = CYLINDRICAL_SURFACE ( 'NONE', #747, 4.250000000000003553 ) ;
#870 = CARTESIAN_POINT ( 'NONE',  ( 113.7151649484685976, 10.00000000000000000, -18.25434739743664991 ) ) ;
#871 = ORIENTED_EDGE ( 'NONE', *, *, #564, .F. ) ;
#872 = CYLINDRICAL_SURFACE ( 'NONE', #839, 6.999999999999999112 ) ;
#873 = ORIENTED_EDGE ( 'NONE', *, *, #889, .F. ) ;
#874 = CARTESIAN_POINT ( 'NONE',  ( 68.10367916085340312, 10.00000000000000000, -31.19379338268009860 ) ) ;
#875 =( NAMED_UNIT ( * ) PLANE_ANGLE_UNIT ( ) SI_UNIT ( $, .RADIAN. ) );
#876 = ORIENTED_EDGE ( 'NONE', *, *, #707, .T. ) ;
#877 = DIRECTION ( 'NONE',  ( 0.000000000000000000, 1.000000000000000000, 0.000000000000000000 ) ) ;
#878 = EDGE_CURVE ( 'NONE', #705, #170, #78, .T. ) ;
#879 = LINE ( 'NONE', #189, #332 ) ;
#880 = CARTESIAN_POINT ( 'NONE',  ( 17.37623487392630039, 0.000000000000000000, -16.51632716988445182 ) ) ;
#881 = DIRECTION ( 'NONE',  ( 0.000000000000000000, 1.000000000000000000, 0.000000000000000000 ) ) ;
#882 = ORIENTED_EDGE ( 'NONE', *, *, #683, .T. ) ;
#883 = CARTESIAN_POINT ( 'NONE',  ( 121.6833229610022045, 10.00000000000000000, -14.56076371506778067 ) ) ;
#884 = VERTEX_POINT ( 'NONE', #883 ) ;
#885 = AXIS2_PLACEMENT_3D ( 'NONE', #247, #831, #169 ) ;
#886 = DIRECTION ( 'NONE',  ( 0.000000000000000000, 1.000000000000000000, 0.000000000000000000 ) ) ;
#887 = CARTESIAN_POINT ( 'NONE',  ( 6.570680109621040543, 35.00000000000000000, -28.16819758388074746 ) ) ;
#888 = PRODUCT ( 'F627941-V2', 'F627941-V2', '', ( #128 ) ) ;
#889 = EDGE_CURVE ( 'NONE', #1040, #1, #278, .T. ) ;
#890 = CARTESIAN_POINT ( 'NONE',  ( 10.07687306775240721, 35.00000000000000000, -20.22310764318926246 ) ) ;
#891 = CARTESIAN_POINT ( 'NONE',  ( 18.40431379371372600, 11.99999999999999289, -21.57114392519891055 ) ) ;
#892 = CARTESIAN_POINT ( 'NONE',  ( 71.46209602760769997, 4.000000000000000000, -26.72609723204974941 ) ) ;
#893 = CARTESIAN_POINT ( 'NONE',  ( 136.1273203516745127, 11.99999999999999289, -21.62117494020057151 ) ) ;
#894 = VECTOR ( 'NONE', #777, 1000.000000000000000 ) ;
#895 = AXIS2_PLACEMENT_3D ( 'NONE', #432, #193, #276 ) ;
#896 = DIRECTION ( 'NONE',  ( 0.000000000000000000, 1.000000000000000000, 0.000000000000000000 ) ) ;
#897 = CARTESIAN_POINT ( 'NONE',  ( 140.5584354003083831, 0.000000000000000000, -27.04017808920610122 ) ) ;
#898 = EDGE_CURVE ( 'NONE', #280, #856, #284, .T. ) ;
#899 = VERTEX_POINT ( 'NONE', #964 ) ;
#900 = DIRECTION ( 'NONE',  ( 0.000000000000000000, 1.000000000000000000, 0.000000000000000000 ) ) ;
#901 = CARTESIAN_POINT ( 'NONE',  ( 77.45569630059736710, 35.00000000000000000, -44.17773260925159917 ) ) ;
#902 = CYLINDRICAL_SURFACE ( 'NONE', #773, 6.999999999999999112 ) ;
#903 = EDGE_CURVE ( 'NONE', #884, #951, #295, .T. ) ;
#904 = CARTESIAN_POINT ( 'NONE',  ( 119.9918179860772085, 4.000000000000000000, -21.35331926653759993 ) ) ;
#905 = ORIENTED_EDGE ( 'NONE', *, *, #102, .T. ) ;
#906 = FACE_OUTER_BOUND ( 'NONE', #702, .T. ) ;
#907 = CARTESIAN_POINT ( 'NONE',  ( 140.5584354003083831, 35.00000000000000000, -27.04017808920610122 ) ) ;
#908 = FACE_OUTER_BOUND ( 'NONE', #296, .T. ) ;
#909 = VECTOR ( 'NONE', #477, 1000.000000000000000 ) ;
#910 = CARTESIAN_POINT ( 'NONE',  ( 132.7488527384209931, -1.694065894508599908E-18, -21.49710688424410066 ) ) ;
#911 = ORIENTED_EDGE ( 'NONE', *, *, #149, .T. ) ;
#912 = DIRECTION ( 'NONE',  ( 0.000000000000000000, 1.000000000000000000, 0.000000000000000000 ) ) ;
#913 = SURFACE_STYLE_FILL_AREA ( #322 ) ;
#914 = VECTOR ( 'NONE', #912, 1000.000000000000000 ) ;
#915 = CARTESIAN_POINT ( 'NONE',  ( 35.53984529851070562, 4.000000000000000000, -11.53874125562519914 ) ) ;
#916 = VERTEX_POINT ( 'NONE', #126 ) ;
#917 = VECTOR ( 'NONE', #501, 1000.000000000000000 ) ;
#918 = EDGE_CURVE ( 'NONE', #394, #627, #445, .T. ) ;
#919 = CARTESIAN_POINT ( 'NONE',  ( 14.89069413190959956, 35.00000000000000000, -20.57569591067307613 ) ) ;
#920 = CARTESIAN_POINT ( 'NONE',  ( 87.43820490779090449, 10.00000000000000000, -28.49504661272380091 ) ) ;
#921 = CYLINDRICAL_SURFACE ( 'NONE', #679, 4.250000000000000000 ) ;
#922 = VERTEX_POINT ( 'NONE', #709 ) ;
#923 = CARTESIAN_POINT ( 'NONE',  ( 118.1882245393694149, 11.99999999999999289, -34.06361675314904858 ) ) ;
#924 = CARTESIAN_POINT ( 'NONE',  ( 121.6833229610022045, 4.000000000000000000, -14.56076371506778067 ) ) ;
#925 = LINE ( 'NONE', #659, #917 ) ;
#926 = VERTEX_POINT ( 'NONE', #785 ) ;
#927 = CARTESIAN_POINT ( 'NONE',  ( 18.55481589632899997, 35.00000000000000000, -18.75548575107210070 ) ) ;
#928 = CARTESIAN_POINT ( 'NONE',  ( 31.97077871546264660, 35.00000000000000000, -28.36462561424477613 ) ) ;
#929 = CARTESIAN_POINT ( 'NONE',  ( 113.7151649484685976, 10.00000000000000000, -18.25434739743664991 ) ) ;
#930 = EDGE_CURVE ( 'NONE', #579, #862, #624, .T. ) ;
#931 = ORIENTED_EDGE ( 'NONE', *, *, #345, .F. ) ;
#932 = CARTESIAN_POINT ( 'NONE',  ( 69.26267676001209850, 4.000000000000000000, -32.27441480049684941 ) ) ;
#933 = AXIS2_PLACEMENT_3D ( 'NONE', #1065, #798, #303 ) ;
#934 = CARTESIAN_POINT ( 'NONE',  ( 31.97077871546264660, 11.99999999999999289, -28.36462561424477613 ) ) ;
#935 = ORIENTED_EDGE ( 'NONE', *, *, #310, .F. ) ;
#936 = ADVANCED_FACE ( 'NONE', ( #464 ), #1053, .T. ) ;
#937 = CARTESIAN_POINT ( 'NONE',  ( -12.22254469517015885, 0.000000000000000000, -4.526868405618579949 ) ) ;
#938 = LINE ( 'NONE', #181, #482 ) ;
#939 = CARTESIAN_POINT ( 'NONE',  ( 69.26267676001209850, 4.000000000000000000, -36.52441480049685651 ) ) ;
#940 = CARTESIAN_POINT ( 'NONE',  ( 8.596168448614809776, 10.00000000000000000, -18.41796713240649908 ) ) ;
#941 = FACE_OUTER_BOUND ( 'NONE', #28, .T. ) ;
#942 = ORIENTED_EDGE ( 'NONE', *, *, #619, .F. ) ;
#943 = CARTESIAN_POINT ( 'NONE',  ( 116.5685756039490002, 35.00000000000000000, -52.38596554092590196 ) ) ;
#944 = ORIENTED_EDGE ( 'NONE', *, *, #207, .T. ) ;
#945 = ORIENTED_EDGE ( 'NONE', *, *, #836, .F. ) ;
#946 = CARTESIAN_POINT ( 'NONE',  ( -12.22254469517015885, 11.99999999999999289, -4.526868405618579949 ) ) ;
#947 = CARTESIAN_POINT ( 'NONE',  ( 24.56245481484645055, 0.000000000000000000, -11.19699363196242103 ) ) ;
#948 = AXIS2_PLACEMENT_3D ( 'NONE', #29, #877, #115 ) ;
#949 = CARTESIAN_POINT ( 'NONE',  ( -4.353595050072783579, 35.00000000000000000, -23.99246800977476823 ) ) ;
#950 = DIRECTION ( 'NONE',  ( 0.000000000000000000, 1.000000000000000000, 0.000000000000000000 ) ) ;
#951 = VERTEX_POINT ( 'NONE', #364 ) ;
#952 = CARTESIAN_POINT ( 'NONE',  ( 66.50788145081769187, 1.694065894508599908E-18, -59.04064362079849815 ) ) ;
#953 = CARTESIAN_POINT ( 'NONE',  ( 136.1273203516745127, 11.99999999999999289, -21.62117494020057151 ) ) ;
#954 = CARTESIAN_POINT ( 'NONE',  ( 19.87820705242549835, 0.000000000000000000, -14.23403641645374051 ) ) ;
#955 = VECTOR ( 'NONE', #133, 1000.000000000000000 ) ;
#956 = EDGE_CURVE ( 'NONE', #1020, #1051, #1028, .T. ) ;
#957 = APPLICATION_PROTOCOL_DEFINITION ( 'draft international standard', 'automotive_design', 1998, #356 ) ;
#958 = ORIENTED_EDGE ( 'NONE', *, *, #330, .F. ) ;
#959 = DIRECTION ( 'NONE',  ( 0.000000000000000000, -1.000000000000000000, 0.000000000000000000 ) ) ;
#960 = ORIENTED_EDGE ( 'NONE', *, *, #121, .T. ) ;
#961 = CARTESIAN_POINT ( 'NONE',  ( 8.536464812026858695, 0.000000000000000000, -18.71899368520135098 ) ) ;
#962 = DIRECTION ( 'NONE',  ( 0.000000000000000000, -1.000000000000000000, 0.000000000000000000 ) ) ;
#963 = ORIENTED_EDGE ( 'NONE', *, *, #101, .T. ) ;
#964 = CARTESIAN_POINT ( 'NONE',  ( 134.8704086482181879, 11.99999999999999289, -20.06548442801155119 ) ) ;
#965 = CIRCLE ( 'NONE', #727, 4.250000000000000000 ) ;
#966 = CARTESIAN_POINT ( 'NONE',  ( -2.519907277703674620, 0.000000000000000000, -30.72398943277805117 ) ) ;
#967 = CARTESIAN_POINT ( 'NONE',  ( 119.9918179860772085, 4.000000000000000000, -17.10331926653759993 ) ) ;
#968 = ADVANCED_FACE ( 'NONE', ( #531 ), #872, .F. ) ;
#969 = AXIS2_PLACEMENT_3D ( 'NONE', #678, #17, #281 ) ;
#970 = CARTESIAN_POINT ( 'NONE',  ( 43.07772060818760451, 4.000000000000000000, -14.92791623613249996 ) ) ;
#971 = CARTESIAN_POINT ( 'NONE',  ( -4.949225676129182183, 11.99999999999999289, -24.16482975702988867 ) ) ;
#972 = CIRCLE ( 'NONE', #713, 4.250000000000000000 ) ;
#973 = PRODUCT_DEFINITION_SHAPE ( 'NONE', 'NONE',  #821 ) ;
#974 = CARTESIAN_POINT ( 'NONE',  ( 38.25289591788330057, 4.000000000000000000, -11.93325526702325945 ) ) ;
#975 = DIRECTION ( 'NONE',  ( 0.000000000000000000, 0.000000000000000000, 1.000000000000000000 ) ) ;
#976 = CARTESIAN_POINT ( 'NONE',  ( 129.0491486338978007, 35.00000000000000000, -27.06859411533796589 ) ) ;
#977 = CARTESIAN_POINT ( 'NONE',  ( 14.89069413190959956, 11.99999999999999289, -20.57569591067307613 ) ) ;
#978 = ORIENTED_EDGE ( 'NONE', *, *, #634, .F. ) ;
#979 = CARTESIAN_POINT ( 'NONE',  ( 69.26267676001209850, 10.00000000000000000, -32.27441480049684941 ) ) ;
#980 = CARTESIAN_POINT ( 'NONE',  ( 4.940772753776053072, 35.00000000000000000, -21.18291084683468384 ) ) ;
#981 = ADVANCED_FACE ( 'NONE', ( #664, #252, #327, #991 ), #750, .F. ) ;
#982 = CARTESIAN_POINT ( 'NONE',  ( 7.606628641072677333, 11.99999999999999289, -20.55929059228417799 ) ) ;
#983 = ORIENTED_EDGE ( 'NONE', *, *, #793, .F. ) ;
#984 = DIRECTION ( 'NONE',  ( 0.000000000000000000, 1.000000000000000000, 0.000000000000000000 ) ) ;
#985 = DIRECTION ( 'NONE',  ( -0.000000000000000000, 1.000000000000000000, -0.000000000000000000 ) ) ;
#986 = FACE_OUTER_BOUND ( 'NONE', #200, .T. ) ;
#987 = CYLINDRICAL_SURFACE ( 'NONE', #885, 6.999999999999999112 ) ;
#988 = EDGE_LOOP ( 'NONE', ( #710, #944, #570, #684 ) ) ;
#989 = B_SPLINE_CURVE_WITH_KNOTS ( 'NONE', 3,
 ( #480, #79, #406, #417, #819, #401, #734, #1075, #649, #910, #154 ),
 .UNSPECIFIED., .F., .F.,
 ( 4, 1, 1, 1, 1, 1, 1, 1, 4 ),
 ( 0.2660997101243640084, 0.3676958649973715021, 0.3897773586493785136, 0.4761216146449850362, 0.5248171963149930175, 0.8280375936794461822, 0.8774058402897431108, 0.9691314158076631546, 1.000000000000000000 ),
 .UNSPECIFIED. ) ;
#990 = CARTESIAN_POINT ( 'NONE',  ( 0.000000000000000000, 4.000000000000000000, 0.000000000000000000 ) ) ;
#991 = FACE_BOUND ( 'NONE', #476, .T. ) ;
#992 = VECTOR ( 'NONE', #206, 1000.000000000000000 ) ;
#993 = CARTESIAN_POINT ( 'NONE',  ( 8.596168448614820434, 11.99999999999998934, -18.41796713240652750 ) ) ;
#994 = ORIENTED_EDGE ( 'NONE', *, *, #423, .F. ) ;
#995 = ADVANCED_FACE ( 'NONE', ( #159, #908 ), #83, .T. ) ;
#996 = ADVANCED_FACE ( 'NONE', ( #239 ), #587, .F. ) ;
#997 = CARTESIAN_POINT ( 'NONE',  ( 2.000249667834420819, 11.99999999999999289, -22.04120835167368853 ) ) ;
#998 = CARTESIAN_POINT ( 'NONE',  ( 101.6921456248360016, 10.00000000000000000, -25.30304880401784828 ) ) ;
#999 = AXIS2_PLACEMENT_3D ( 'NONE', #932, #255, #694 ) ;
#1000 = CARTESIAN_POINT ( 'NONE',  ( 69.26267676001209850, 0.000000000000000000, -28.02441480049684941 ) ) ;
#1001 = VERTEX_POINT ( 'NONE', #842 ) ;
#1002 = DIRECTION ( 'NONE',  ( 0.000000000000000000, 1.000000000000000000, 0.000000000000000000 ) ) ;
#1003 = CARTESIAN_POINT ( 'NONE',  ( 119.9918179860772085, 4.000000000000000000, -21.35331926653759993 ) ) ;
#1004 = DIRECTION ( 'NONE',  ( 0.000000000000000000, 0.000000000000000000, 1.000000000000000000 ) ) ;
#1005 = VERTEX_POINT ( 'NONE', #1099 ) ;
#1006 = UNCERTAINTY_MEASURE_WITH_UNIT (LENGTH_MEASURE( 1.000000000000000082E-05 ), #697, 'distance_accuracy_value', 'NONE');
#1007 = CYLINDRICAL_SURFACE ( 'NONE', #999, 4.250000000000003553 ) ;
#1008 = EDGE_CURVE ( 'NONE', #435, #951, #289, .T. ) ;
#1009 = CARTESIAN_POINT ( 'NONE',  ( 54.93285071112041607, 35.00000000000000000, -39.29537072927713837 ) ) ;
#1010 = DIRECTION ( 'NONE',  ( 0.000000000000000000, 1.000000000000000000, 0.000000000000000000 ) ) ;
#1011 = ORIENTED_EDGE ( 'NONE', *, *, #451, .F. ) ;
#1012 = VECTOR ( 'NONE', #351, 1000.000000000000000 ) ;
#1013 = CARTESIAN_POINT ( 'NONE',  ( 12.67259622652160012, 35.00000000000000000, -17.86600929579674712 ) ) ;
#1014 = CARTESIAN_POINT ( 'NONE',  ( 110.4138243642287733, 11.99999999999999289, -38.08729945482865986 ) ) ;
#1015 = ORIENTED_EDGE ( 'NONE', *, *, #86, .F. ) ;
#1016 = ORIENTED_EDGE ( 'NONE', *, *, #66, .F. ) ;
#1017 = FACE_OUTER_BOUND ( 'NONE', #666, .T. ) ;
#1018 = CARTESIAN_POINT ( 'NONE',  ( 73.85457967273899271, 10.00000000000000000, -26.99100419369279891 ) ) ;
#1019 = DIRECTION ( 'NONE',  ( 0.000000000000000000, 0.000000000000000000, 1.000000000000000000 ) ) ;
#1020 = VERTEX_POINT ( 'NONE', #257 ) ;
#1021 = CARTESIAN_POINT ( 'NONE',  ( 29.84158016506654931, 35.00000000000000000, -35.35547973944839839 ) ) ;
#1022 = ORIENTED_EDGE ( 'NONE', *, *, #37, .T. ) ;
#1023 = ORIENTED_EDGE ( 'NONE', *, *, #648, .T. ) ;
#1024 = CARTESIAN_POINT ( 'NONE',  ( 66.68180161428510644, 4.000000000000000000, -25.76756583328014827 ) ) ;
#1025 = CARTESIAN_POINT ( 'NONE',  ( 45.38028193526660203, 10.00000000000000000, -16.39675547322649862 ) ) ;
#1026 = DIRECTION ( 'NONE',  ( 0.7749659623549112197, 0.000000000000000000, 0.6320029724545022098 ) ) ;
#1027 = VERTEX_POINT ( 'NONE', #341 ) ;
#1028 = LINE ( 'NONE', #692, #804 ) ;
#1029 = ORIENTED_EDGE ( 'NONE', *, *, #3, .T. ) ;
#1030 = VERTEX_POINT ( 'NONE', #167 ) ;
#1031 = EDGE_CURVE ( 'NONE', #280, #1096, #690, .T. ) ;
#1032 = EDGE_CURVE ( 'NONE', #80, #916, #46, .T. ) ;
#1033 = CARTESIAN_POINT ( 'NONE',  ( -4.949225682017518224, 35.00000000000000000, -24.16482975873384476 ) ) ;
#1034 = CARTESIAN_POINT ( 'NONE',  ( 53.25210052578730568, 10.00000000000000000, -21.52078671195669912 ) ) ;
#1035 = AXIS2_PLACEMENT_3D ( 'NONE', #103, #438, #1019 ) ;
#1036 = CARTESIAN_POINT ( 'NONE',  ( -5.645736480116020140, 35.00000000000000000, -22.28425058626475064 ) ) ;
#1037 =( GEOMETRIC_REPRESENTATION_CONTEXT ( 3 ) GLOBAL_UNCERTAINTY_ASSIGNED_CONTEXT ( ( #1006 ) ) GLOBAL_UNIT_ASSIGNED_CONTEXT ( ( #697, #875, #347 ) ) REPRESENTATION_CONTEXT ( 'NONE', 'WORKASPACE' ) );
#1038 = ORIENTED_EDGE ( 'NONE', *, *, #121, .F. ) ;
#1039 = CARTESIAN_POINT ( 'NONE',  ( 69.26267676001209850, 10.00000000000000000, -39.27441480049684941 ) ) ;
#1040 = VERTEX_POINT ( 'NONE', #824 ) ;
#1041 = CARTESIAN_POINT ( 'NONE',  ( 0.5635211855326679453, 0.000000000000000000, -19.47182345606799814 ) ) ;
#1042 = VECTOR ( 'NONE', #532, 1000.000000000000114 ) ;
#1043 =( NAMED_UNIT ( * ) PLANE_ANGLE_UNIT ( ) SI_UNIT ( $, .RADIAN. ) );
#1044 = DIRECTION ( 'NONE',  ( 0.000000000000000000, 1.000000000000000000, 0.000000000000000000 ) ) ;
#1045 = VERTEX_POINT ( 'NONE', #61 ) ;
#1046 = DIRECTION ( 'NONE',  ( 0.000000000000000000, 1.000000000000000000, 0.000000000000000000 ) ) ;
#1047 = ORIENTED_EDGE ( 'NONE', *, *, #1049, .T. ) ;
#1048 = CARTESIAN_POINT ( 'NONE',  ( 119.9918179860772085, 0.000000000000000000, -25.60331926653759993 ) ) ;
#1049 = EDGE_CURVE ( 'NONE', #848, #1030, #243, .T. ) ;
#1050 = CARTESIAN_POINT ( 'NONE',  ( 69.26267676001209850, 10.00000000000000000, -32.27441480049684941 ) ) ;
#1051 = VERTEX_POINT ( 'NONE', #492 ) ;
#1052 = VECTOR ( 'NONE', #822, 1000.000000000000114 ) ;
#1053 = B_SPLINE_SURFACE_WITH_KNOTS ( 'NONE', 3, 1, ( 
 ( #211, #544 ),
 ( #887, #799 ),
 ( #120, #44 ),
 ( #682, #201 ),
 ( #1021, #270 ),
 ( #615, #598 ),
 ( #943, #186 ),
 ( #522, #21 ) ),
 .UNSPECIFIED., .F., .F., .F.,
 ( 4, 1, 1, 1, 1, 4 ),
 ( 2, 2 ),
 ( 0.000000000000000000, 0.08293569739394220097, 0.1020612612758750037, 0.1813451524256099734, 0.2721300749373944949, 1.000000000000000000 ),
 ( 0.000000000000000000, 1.000000000000000000 ),
 .UNSPECIFIED. ) ;
#1054 = DIRECTION ( 'NONE',  ( 0.000000000000000000, 1.000000000000000000, 0.000000000000000000 ) ) ;
#1055 = DIRECTION ( 'NONE',  ( 0.000000000000000000, -1.000000000000000000, 0.000000000000000000 ) ) ;
#1056 = EDGE_CURVE ( 'NONE', #899, #30, #163, .T. ) ;
#1057 = AXIS2_PLACEMENT_3D ( 'NONE', #366, #16, #87 ) ;
#1058 = CARTESIAN_POINT ( 'NONE',  ( -3.098281051231807748, 35.00000000000000000, -23.62074008545106096 ) ) ;
#1059 = CARTESIAN_POINT ( 'NONE',  ( 69.26267676001209850, 0.000000000000000000, -32.27441480049684941 ) ) ;
#1060 = DIRECTION ( 'NONE',  ( 0.000000000000000000, 0.000000000000000000, 1.000000000000000000 ) ) ;
#1061 = CARTESIAN_POINT ( 'NONE',  ( 132.7488527384209931, 10.00000000000000000, -21.49710688424410066 ) ) ;
#1062 = ORIENTED_EDGE ( 'NONE', *, *, #149, .F. ) ;
#1063 = ADVANCED_FACE ( 'NONE', ( #77, #986 ), #561, .T. ) ;
#1064 = LINE ( 'NONE', #33, #6 ) ;
#1065 = CARTESIAN_POINT ( 'NONE',  ( 0.000000000000000000, 0.000000000000000000, 0.000000000000000000 ) ) ;
#1066 = DIRECTION ( 'NONE',  ( 0.000000000000000000, 1.000000000000000000, 0.000000000000000000 ) ) ;
#1067 = CARTESIAN_POINT ( 'NONE',  ( -4.949225682017489802, 11.99999999999999289, -24.16482975873383054 ) ) ;
#1068 = VERTEX_POINT ( 'NONE', #69 ) ;
#1069 = COLOUR_RGB ( '',0.7921568627450980005, 0.8196078431372548767, 0.9294117647058823817 ) ;
#1070 = CARTESIAN_POINT ( 'NONE',  ( 36.99181798607720140, 10.00000000000000000, -25.38649821061130041 ) ) ;
#1071 = MANIFOLD_SOLID_BREP ( 'Cut-Extrude1', #754 ) ;
#1072 = CARTESIAN_POINT ( 'NONE',  ( 54.93285071112041607, 35.00000000000000000, -39.29537072927713837 ) ) ;
#1073 = CARTESIAN_POINT ( 'NONE',  ( 124.0732214374896500, 11.99999999999999289, -30.50138797490257403 ) ) ;
#1074 = CARTESIAN_POINT ( 'NONE',  ( 34.82835039339759930, 10.00000000000000000, -11.43528033709269920 ) ) ;
#1075 = CARTESIAN_POINT ( 'NONE',  ( 122.0882665221252097, -1.694065894508599908E-18, -12.74994288847786095 ) ) ;
#1076 = VERTEX_POINT ( 'NONE', #90 ) ;
#1077 =( GEOMETRIC_REPRESENTATION_CONTEXT ( 3 ) GLOBAL_UNCERTAINTY_ASSIGNED_CONTEXT ( ( #422 ) ) GLOBAL_UNIT_ASSIGNED_CONTEXT ( ( #375, #1043, #426 ) ) REPRESENTATION_CONTEXT ( 'NONE', 'WORKASPACE' ) );
#1078 = CARTESIAN_POINT ( 'NONE',  ( 10.07687306775240721, 11.99999999999999289, -20.22310764318926246 ) ) ;
#1079 = FACE_OUTER_BOUND ( 'NONE', #452, .T. ) ;
#1080 = EDGE_CURVE ( 'NONE', #170, #269, #783, .T. ) ;
#1081 = ADVANCED_FACE ( 'NONE', ( #1079 ), #290, .F. ) ;
#1082 = DIRECTION ( 'NONE',  ( 0.000000000000000000, 1.000000000000000000, 0.000000000000000000 ) ) ;
#1083 = ORIENTED_EDGE ( 'NONE', *, *, #898, .F. ) ;
#1084 = B_SPLINE_CURVE_WITH_KNOTS ( 'NONE', 3,
 ( #38, #309, #555, #724 ),
 .UNSPECIFIED., .F., .F.,
 ( 4, 4 ),
 ( 7.757919228897728493E-18, 0.01476308418547568960 ),
 .UNSPECIFIED. ) ;
#1085 = CARTESIAN_POINT ( 'NONE',  ( 100.7789865885640523, 35.00000000000000000, -41.75959788460644972 ) ) ;
#1086 = DIRECTION ( 'NONE',  ( 0.000000000000000000, 1.000000000000000000, 0.000000000000000000 ) ) ;
#1087 = ADVANCED_FACE ( 'NONE', ( #941 ), #32, .F. ) ;
#1088 = AXIS2_PLACEMENT_3D ( 'NONE', #1050, #130, #541 ) ;
#1089 = CARTESIAN_POINT ( 'NONE',  ( 36.99181798607720140, 10.00000000000000000, -18.38649821061130041 ) ) ;
#1090 = ORIENTED_EDGE ( 'NONE', *, *, #136, .T. ) ;
#1091 = CARTESIAN_POINT ( 'NONE',  ( 118.1882245393694149, 35.00000000000000000, -34.06361675314904858 ) ) ;
#1092 = DIRECTION ( 'NONE',  ( 0.000000000000000000, 1.000000000000000000, 0.000000000000000000 ) ) ;
#1093 = AXIS2_PLACEMENT_3D ( 'NONE', #8, #218, #975 ) ;
#1094 = AXIS2_PLACEMENT_3D ( 'NONE', #640, #896, #478 ) ;
#1095 = FACE_OUTER_BOUND ( 'NONE', #791, .T. ) ;
#1096 = VERTEX_POINT ( 'NONE', #870 ) ;
#1097 = CARTESIAN_POINT ( 'NONE',  ( 52.60758158420269837, 35.00000000000000000, -38.27228372484385233 ) ) ;
#1098 = CARTESIAN_POINT ( 'NONE',  ( 124.0732214374896500, 35.00000000000000000, -30.50138797490257403 ) ) ;
#1099 = CARTESIAN_POINT ( 'NONE',  ( 36.99181798607720140, 0.000000000000000000, -14.13649821061130041 ) ) ;
ENDSEC;
END-ISO-10303-21;
