ISO-10303-21;
HEADER;
/* Generated by software containing ST-Developer
 * from STEP Tools, Inc. (www.steptools.com) 
 */

FILE_DESCRIPTION(
/* description */ (''),
/* implementation_level */ '2;1');

FILE_NAME(
/* name */ 'C:\\Users\\jedrz\\Downloads\\Part16.stp',
/* time_stamp */ '2022-10-31T12:32:27+01:00',
/* author */ ('jedrz'),
/* organization */ (''),
/* preprocessor_version */ 'ST-DEVELOPER v19',
/* originating_system */ 'Autodesk Inventor 2023',
/* authorisation */ '');

FILE_SCHEMA (('AUTOMOTIVE_DESIGN { 1 0 10303 214 3 1 1 }'));
ENDSEC;

DATA;
#10=MECHANICAL_DESIGN_GEOMETRIC_PRESENTATION_REPRESENTATION('',(#13),#528);
#11=SHAPE_REPRESENTATION_RELATIONSHIP('SRR','None',#535,#12);
#12=ADVANCED_BREP_SHAPE_REPRESENTATION('',(#14),#527);
#13=STYLED_ITEM('',(#544),#14);
#14=MANIFOLD_SOLID_BREP('Solid1',#311);
#15=CIRCLE('',#337,3.5);
#16=CIRCLE('',#338,3.5);
#17=CIRCLE('',#343,3.51887778227096);
#18=CIRCLE('',#344,3.51887778227096);
#19=CIRCLE('',#350,5.03071432073801);
#20=CIRCLE('',#351,5.03071432073801);
#21=CYLINDRICAL_SURFACE('',#336,3.5);
#22=CYLINDRICAL_SURFACE('',#342,3.51887778227096);
#23=CYLINDRICAL_SURFACE('',#349,5.03071432073801);
#24=FACE_OUTER_BOUND('',#40,.T.);
#25=FACE_OUTER_BOUND('',#41,.T.);
#26=FACE_OUTER_BOUND('',#42,.T.);
#27=FACE_OUTER_BOUND('',#43,.T.);
#28=FACE_OUTER_BOUND('',#44,.T.);
#29=FACE_OUTER_BOUND('',#45,.T.);
#30=FACE_OUTER_BOUND('',#46,.T.);
#31=FACE_OUTER_BOUND('',#47,.T.);
#32=FACE_OUTER_BOUND('',#48,.T.);
#33=FACE_OUTER_BOUND('',#49,.T.);
#34=FACE_OUTER_BOUND('',#50,.T.);
#35=FACE_OUTER_BOUND('',#51,.T.);
#36=FACE_OUTER_BOUND('',#52,.T.);
#37=FACE_OUTER_BOUND('',#53,.T.);
#38=FACE_OUTER_BOUND('',#54,.T.);
#39=FACE_OUTER_BOUND('',#55,.T.);
#40=EDGE_LOOP('',(#198,#199,#200,#201));
#41=EDGE_LOOP('',(#202,#203,#204,#205));
#42=EDGE_LOOP('',(#206,#207,#208,#209));
#43=EDGE_LOOP('',(#210,#211,#212,#213));
#44=EDGE_LOOP('',(#214,#215,#216,#217));
#45=EDGE_LOOP('',(#218,#219,#220,#221));
#46=EDGE_LOOP('',(#222,#223,#224,#225));
#47=EDGE_LOOP('',(#226,#227,#228,#229));
#48=EDGE_LOOP('',(#230,#231,#232,#233));
#49=EDGE_LOOP('',(#234,#235,#236,#237));
#50=EDGE_LOOP('',(#238,#239,#240,#241));
#51=EDGE_LOOP('',(#242,#243,#244,#245));
#52=EDGE_LOOP('',(#246,#247,#248,#249));
#53=EDGE_LOOP('',(#250,#251,#252,#253));
#54=EDGE_LOOP('',(#254,#255,#256,#257,#258,#259,#260,#261,#262,#263,#264,
#265,#266,#267));
#55=EDGE_LOOP('',(#268,#269,#270,#271,#272,#273,#274,#275,#276,#277,#278,
#279,#280,#281));
#56=LINE('',#442,#92);
#57=LINE('',#444,#93);
#58=LINE('',#446,#94);
#59=LINE('',#447,#95);
#60=LINE('',#450,#96);
#61=LINE('',#452,#97);
#62=LINE('',#453,#98);
#63=LINE('',#459,#99);
#64=LINE('',#462,#100);
#65=LINE('',#464,#101);
#66=LINE('',#465,#102);
#67=LINE('',#468,#103);
#68=LINE('',#470,#104);
#69=LINE('',#471,#105);
#70=LINE('',#474,#106);
#71=LINE('',#476,#107);
#72=LINE('',#477,#108);
#73=LINE('',#483,#109);
#74=LINE('',#486,#110);
#75=LINE('',#488,#111);
#76=LINE('',#489,#112);
#77=LINE('',#492,#113);
#78=LINE('',#494,#114);
#79=LINE('',#495,#115);
#80=LINE('',#498,#116);
#81=LINE('',#500,#117);
#82=LINE('',#501,#118);
#83=LINE('',#504,#119);
#84=LINE('',#506,#120);
#85=LINE('',#507,#121);
#86=LINE('',#513,#122);
#87=LINE('',#516,#123);
#88=LINE('',#518,#124);
#89=LINE('',#519,#125);
#90=LINE('',#521,#126);
#91=LINE('',#522,#127);
#92=VECTOR('',#360,10.);
#93=VECTOR('',#361,10.);
#94=VECTOR('',#362,10.);
#95=VECTOR('',#363,10.);
#96=VECTOR('',#366,10.);
#97=VECTOR('',#367,10.);
#98=VECTOR('',#368,10.);
#99=VECTOR('',#375,10.);
#100=VECTOR('',#378,10.);
#101=VECTOR('',#379,10.);
#102=VECTOR('',#380,10.);
#103=VECTOR('',#383,10.);
#104=VECTOR('',#384,10.);
#105=VECTOR('',#385,10.);
#106=VECTOR('',#388,10.);
#107=VECTOR('',#389,10.);
#108=VECTOR('',#390,10.);
#109=VECTOR('',#397,10.);
#110=VECTOR('',#400,10.);
#111=VECTOR('',#401,10.);
#112=VECTOR('',#402,10.);
#113=VECTOR('',#405,10.);
#114=VECTOR('',#406,10.);
#115=VECTOR('',#407,10.);
#116=VECTOR('',#410,10.);
#117=VECTOR('',#411,10.);
#118=VECTOR('',#412,10.);
#119=VECTOR('',#415,10.);
#120=VECTOR('',#416,10.);
#121=VECTOR('',#417,10.);
#122=VECTOR('',#424,10.);
#123=VECTOR('',#427,10.);
#124=VECTOR('',#428,10.);
#125=VECTOR('',#429,10.);
#126=VECTOR('',#432,10.);
#127=VECTOR('',#433,10.);
#128=VERTEX_POINT('',#440);
#129=VERTEX_POINT('',#441);
#130=VERTEX_POINT('',#443);
#131=VERTEX_POINT('',#445);
#132=VERTEX_POINT('',#449);
#133=VERTEX_POINT('',#451);
#134=VERTEX_POINT('',#455);
#135=VERTEX_POINT('',#457);
#136=VERTEX_POINT('',#461);
#137=VERTEX_POINT('',#463);
#138=VERTEX_POINT('',#467);
#139=VERTEX_POINT('',#469);
#140=VERTEX_POINT('',#473);
#141=VERTEX_POINT('',#475);
#142=VERTEX_POINT('',#479);
#143=VERTEX_POINT('',#481);
#144=VERTEX_POINT('',#485);
#145=VERTEX_POINT('',#487);
#146=VERTEX_POINT('',#491);
#147=VERTEX_POINT('',#493);
#148=VERTEX_POINT('',#497);
#149=VERTEX_POINT('',#499);
#150=VERTEX_POINT('',#503);
#151=VERTEX_POINT('',#505);
#152=VERTEX_POINT('',#509);
#153=VERTEX_POINT('',#511);
#154=VERTEX_POINT('',#515);
#155=VERTEX_POINT('',#517);
#156=EDGE_CURVE('',#128,#129,#56,.T.);
#157=EDGE_CURVE('',#129,#130,#57,.T.);
#158=EDGE_CURVE('',#131,#130,#58,.T.);
#159=EDGE_CURVE('',#128,#131,#59,.T.);
#160=EDGE_CURVE('',#132,#128,#60,.T.);
#161=EDGE_CURVE('',#133,#131,#61,.T.);
#162=EDGE_CURVE('',#132,#133,#62,.T.);
#163=EDGE_CURVE('',#134,#132,#15,.T.);
#164=EDGE_CURVE('',#135,#133,#16,.T.);
#165=EDGE_CURVE('',#134,#135,#63,.T.);
#166=EDGE_CURVE('',#136,#134,#64,.T.);
#167=EDGE_CURVE('',#137,#135,#65,.T.);
#168=EDGE_CURVE('',#136,#137,#66,.T.);
#169=EDGE_CURVE('',#138,#136,#67,.T.);
#170=EDGE_CURVE('',#139,#137,#68,.T.);
#171=EDGE_CURVE('',#138,#139,#69,.T.);
#172=EDGE_CURVE('',#140,#138,#70,.T.);
#173=EDGE_CURVE('',#141,#139,#71,.T.);
#174=EDGE_CURVE('',#140,#141,#72,.T.);
#175=EDGE_CURVE('',#142,#140,#17,.T.);
#176=EDGE_CURVE('',#143,#141,#18,.T.);
#177=EDGE_CURVE('',#142,#143,#73,.T.);
#178=EDGE_CURVE('',#144,#142,#74,.T.);
#179=EDGE_CURVE('',#145,#143,#75,.T.);
#180=EDGE_CURVE('',#144,#145,#76,.T.);
#181=EDGE_CURVE('',#146,#144,#77,.T.);
#182=EDGE_CURVE('',#147,#145,#78,.T.);
#183=EDGE_CURVE('',#146,#147,#79,.T.);
#184=EDGE_CURVE('',#148,#146,#80,.T.);
#185=EDGE_CURVE('',#149,#147,#81,.T.);
#186=EDGE_CURVE('',#148,#149,#82,.T.);
#187=EDGE_CURVE('',#150,#148,#83,.T.);
#188=EDGE_CURVE('',#151,#149,#84,.T.);
#189=EDGE_CURVE('',#150,#151,#85,.T.);
#190=EDGE_CURVE('',#152,#150,#19,.T.);
#191=EDGE_CURVE('',#153,#151,#20,.T.);
#192=EDGE_CURVE('',#152,#153,#86,.T.);
#193=EDGE_CURVE('',#154,#152,#87,.T.);
#194=EDGE_CURVE('',#155,#153,#88,.T.);
#195=EDGE_CURVE('',#154,#155,#89,.T.);
#196=EDGE_CURVE('',#129,#154,#90,.T.);
#197=EDGE_CURVE('',#130,#155,#91,.T.);
#198=ORIENTED_EDGE('',*,*,#156,.T.);
#199=ORIENTED_EDGE('',*,*,#157,.T.);
#200=ORIENTED_EDGE('',*,*,#158,.F.);
#201=ORIENTED_EDGE('',*,*,#159,.F.);
#202=ORIENTED_EDGE('',*,*,#160,.T.);
#203=ORIENTED_EDGE('',*,*,#159,.T.);
#204=ORIENTED_EDGE('',*,*,#161,.F.);
#205=ORIENTED_EDGE('',*,*,#162,.F.);
#206=ORIENTED_EDGE('',*,*,#163,.T.);
#207=ORIENTED_EDGE('',*,*,#162,.T.);
#208=ORIENTED_EDGE('',*,*,#164,.F.);
#209=ORIENTED_EDGE('',*,*,#165,.F.);
#210=ORIENTED_EDGE('',*,*,#166,.T.);
#211=ORIENTED_EDGE('',*,*,#165,.T.);
#212=ORIENTED_EDGE('',*,*,#167,.F.);
#213=ORIENTED_EDGE('',*,*,#168,.F.);
#214=ORIENTED_EDGE('',*,*,#169,.T.);
#215=ORIENTED_EDGE('',*,*,#168,.T.);
#216=ORIENTED_EDGE('',*,*,#170,.F.);
#217=ORIENTED_EDGE('',*,*,#171,.F.);
#218=ORIENTED_EDGE('',*,*,#172,.T.);
#219=ORIENTED_EDGE('',*,*,#171,.T.);
#220=ORIENTED_EDGE('',*,*,#173,.F.);
#221=ORIENTED_EDGE('',*,*,#174,.F.);
#222=ORIENTED_EDGE('',*,*,#175,.T.);
#223=ORIENTED_EDGE('',*,*,#174,.T.);
#224=ORIENTED_EDGE('',*,*,#176,.F.);
#225=ORIENTED_EDGE('',*,*,#177,.F.);
#226=ORIENTED_EDGE('',*,*,#178,.T.);
#227=ORIENTED_EDGE('',*,*,#177,.T.);
#228=ORIENTED_EDGE('',*,*,#179,.F.);
#229=ORIENTED_EDGE('',*,*,#180,.F.);
#230=ORIENTED_EDGE('',*,*,#181,.T.);
#231=ORIENTED_EDGE('',*,*,#180,.T.);
#232=ORIENTED_EDGE('',*,*,#182,.F.);
#233=ORIENTED_EDGE('',*,*,#183,.F.);
#234=ORIENTED_EDGE('',*,*,#184,.T.);
#235=ORIENTED_EDGE('',*,*,#183,.T.);
#236=ORIENTED_EDGE('',*,*,#185,.F.);
#237=ORIENTED_EDGE('',*,*,#186,.F.);
#238=ORIENTED_EDGE('',*,*,#187,.T.);
#239=ORIENTED_EDGE('',*,*,#186,.T.);
#240=ORIENTED_EDGE('',*,*,#188,.F.);
#241=ORIENTED_EDGE('',*,*,#189,.F.);
#242=ORIENTED_EDGE('',*,*,#190,.T.);
#243=ORIENTED_EDGE('',*,*,#189,.T.);
#244=ORIENTED_EDGE('',*,*,#191,.F.);
#245=ORIENTED_EDGE('',*,*,#192,.F.);
#246=ORIENTED_EDGE('',*,*,#193,.T.);
#247=ORIENTED_EDGE('',*,*,#192,.T.);
#248=ORIENTED_EDGE('',*,*,#194,.F.);
#249=ORIENTED_EDGE('',*,*,#195,.F.);
#250=ORIENTED_EDGE('',*,*,#196,.T.);
#251=ORIENTED_EDGE('',*,*,#195,.T.);
#252=ORIENTED_EDGE('',*,*,#197,.F.);
#253=ORIENTED_EDGE('',*,*,#157,.F.);
#254=ORIENTED_EDGE('',*,*,#197,.T.);
#255=ORIENTED_EDGE('',*,*,#194,.T.);
#256=ORIENTED_EDGE('',*,*,#191,.T.);
#257=ORIENTED_EDGE('',*,*,#188,.T.);
#258=ORIENTED_EDGE('',*,*,#185,.T.);
#259=ORIENTED_EDGE('',*,*,#182,.T.);
#260=ORIENTED_EDGE('',*,*,#179,.T.);
#261=ORIENTED_EDGE('',*,*,#176,.T.);
#262=ORIENTED_EDGE('',*,*,#173,.T.);
#263=ORIENTED_EDGE('',*,*,#170,.T.);
#264=ORIENTED_EDGE('',*,*,#167,.T.);
#265=ORIENTED_EDGE('',*,*,#164,.T.);
#266=ORIENTED_EDGE('',*,*,#161,.T.);
#267=ORIENTED_EDGE('',*,*,#158,.T.);
#268=ORIENTED_EDGE('',*,*,#196,.F.);
#269=ORIENTED_EDGE('',*,*,#156,.F.);
#270=ORIENTED_EDGE('',*,*,#160,.F.);
#271=ORIENTED_EDGE('',*,*,#163,.F.);
#272=ORIENTED_EDGE('',*,*,#166,.F.);
#273=ORIENTED_EDGE('',*,*,#169,.F.);
#274=ORIENTED_EDGE('',*,*,#172,.F.);
#275=ORIENTED_EDGE('',*,*,#175,.F.);
#276=ORIENTED_EDGE('',*,*,#178,.F.);
#277=ORIENTED_EDGE('',*,*,#181,.F.);
#278=ORIENTED_EDGE('',*,*,#184,.F.);
#279=ORIENTED_EDGE('',*,*,#187,.F.);
#280=ORIENTED_EDGE('',*,*,#190,.F.);
#281=ORIENTED_EDGE('',*,*,#193,.F.);
#282=PLANE('',#334);
#283=PLANE('',#335);
#284=PLANE('',#339);
#285=PLANE('',#340);
#286=PLANE('',#341);
#287=PLANE('',#345);
#288=PLANE('',#346);
#289=PLANE('',#347);
#290=PLANE('',#348);
#291=PLANE('',#352);
#292=PLANE('',#353);
#293=PLANE('',#354);
#294=PLANE('',#355);
#295=ADVANCED_FACE('',(#24),#282,.T.);
#296=ADVANCED_FACE('',(#25),#283,.T.);
#297=ADVANCED_FACE('',(#26),#21,.F.);
#298=ADVANCED_FACE('',(#27),#284,.T.);
#299=ADVANCED_FACE('',(#28),#285,.T.);
#300=ADVANCED_FACE('',(#29),#286,.T.);
#301=ADVANCED_FACE('',(#30),#22,.F.);
#302=ADVANCED_FACE('',(#31),#287,.T.);
#303=ADVANCED_FACE('',(#32),#288,.T.);
#304=ADVANCED_FACE('',(#33),#289,.T.);
#305=ADVANCED_FACE('',(#34),#290,.T.);
#306=ADVANCED_FACE('',(#35),#23,.F.);
#307=ADVANCED_FACE('',(#36),#291,.T.);
#308=ADVANCED_FACE('',(#37),#292,.T.);
#309=ADVANCED_FACE('',(#38),#293,.T.);
#310=ADVANCED_FACE('',(#39),#294,.F.);
#311=CLOSED_SHELL('',(#295,#296,#297,#298,#299,#300,#301,#302,#303,#304,
#305,#306,#307,#308,#309,#310));
#312=DERIVED_UNIT_ELEMENT(#315,1.);
#313=DERIVED_UNIT_ELEMENT(#530,-3.);
#314=DIMENSIONAL_EXPONENTS(1.,0.,0.,0.,0.,0.,0.);
#315=(
CONVERSION_BASED_UNIT('gram',#317)
MASS_UNIT()
NAMED_UNIT(#314)
);
#316=(
MASS_UNIT()
NAMED_UNIT(*)
SI_UNIT(.KILO.,.GRAM.)
);
#317=MASS_MEASURE_WITH_UNIT(MASS_MEASURE(0.001),#316);
#318=DERIVED_UNIT((#312,#313));
#319=MEASURE_REPRESENTATION_ITEM('density measure',
POSITIVE_RATIO_MEASURE(1.),#318);
#320=PROPERTY_DEFINITION_REPRESENTATION(#325,#322);
#321=PROPERTY_DEFINITION_REPRESENTATION(#326,#323);
#322=REPRESENTATION('material name',(#324),#527);
#323=REPRESENTATION('density',(#319),#527);
#324=DESCRIPTIVE_REPRESENTATION_ITEM('Generic','Generic');
#325=PROPERTY_DEFINITION('material property','material name',#537);
#326=PROPERTY_DEFINITION('material property','density of part',#537);
#327=DATE_TIME_ROLE('creation_date');
#328=APPLIED_DATE_AND_TIME_ASSIGNMENT(#329,#327,(#537));
#329=DATE_AND_TIME(#330,#331);
#330=CALENDAR_DATE(2022,31,10);
#331=LOCAL_TIME(0,0,0.,#332);
#332=COORDINATED_UNIVERSAL_TIME_OFFSET(0,0,.BEHIND.);
#333=AXIS2_PLACEMENT_3D('placement',#438,#356,#357);
#334=AXIS2_PLACEMENT_3D('',#439,#358,#359);
#335=AXIS2_PLACEMENT_3D('',#448,#364,#365);
#336=AXIS2_PLACEMENT_3D('',#454,#369,#370);
#337=AXIS2_PLACEMENT_3D('',#456,#371,#372);
#338=AXIS2_PLACEMENT_3D('',#458,#373,#374);
#339=AXIS2_PLACEMENT_3D('',#460,#376,#377);
#340=AXIS2_PLACEMENT_3D('',#466,#381,#382);
#341=AXIS2_PLACEMENT_3D('',#472,#386,#387);
#342=AXIS2_PLACEMENT_3D('',#478,#391,#392);
#343=AXIS2_PLACEMENT_3D('',#480,#393,#394);
#344=AXIS2_PLACEMENT_3D('',#482,#395,#396);
#345=AXIS2_PLACEMENT_3D('',#484,#398,#399);
#346=AXIS2_PLACEMENT_3D('',#490,#403,#404);
#347=AXIS2_PLACEMENT_3D('',#496,#408,#409);
#348=AXIS2_PLACEMENT_3D('',#502,#413,#414);
#349=AXIS2_PLACEMENT_3D('',#508,#418,#419);
#350=AXIS2_PLACEMENT_3D('',#510,#420,#421);
#351=AXIS2_PLACEMENT_3D('',#512,#422,#423);
#352=AXIS2_PLACEMENT_3D('',#514,#425,#426);
#353=AXIS2_PLACEMENT_3D('',#520,#430,#431);
#354=AXIS2_PLACEMENT_3D('',#523,#434,#435);
#355=AXIS2_PLACEMENT_3D('',#524,#436,#437);
#356=DIRECTION('axis',(0.,0.,1.));
#357=DIRECTION('refdir',(1.,0.,0.));
#358=DIRECTION('center_axis',(0.,0.,1.));
#359=DIRECTION('ref_axis',(1.,0.,0.));
#360=DIRECTION('',(1.,0.,0.));
#361=DIRECTION('',(0.,1.,0.));
#362=DIRECTION('',(1.,0.,0.));
#363=DIRECTION('',(0.,1.,0.));
#364=DIRECTION('center_axis',(-1.,0.,0.));
#365=DIRECTION('ref_axis',(0.,0.,1.));
#366=DIRECTION('',(0.,0.,1.));
#367=DIRECTION('',(0.,0.,1.));
#368=DIRECTION('',(0.,1.,0.));
#369=DIRECTION('center_axis',(0.,1.,0.));
#370=DIRECTION('ref_axis',(-1.,0.,0.));
#371=DIRECTION('center_axis',(0.,-1.,0.));
#372=DIRECTION('ref_axis',(-1.,0.,0.));
#373=DIRECTION('center_axis',(0.,-1.,0.));
#374=DIRECTION('ref_axis',(-1.,0.,0.));
#375=DIRECTION('',(0.,1.,0.));
#376=DIRECTION('center_axis',(0.,0.,1.));
#377=DIRECTION('ref_axis',(1.,0.,0.));
#378=DIRECTION('',(1.,0.,0.));
#379=DIRECTION('',(1.,0.,0.));
#380=DIRECTION('',(0.,1.,0.));
#381=DIRECTION('center_axis',(-1.,0.,0.));
#382=DIRECTION('ref_axis',(0.,0.,1.));
#383=DIRECTION('',(0.,0.,1.));
#384=DIRECTION('',(0.,0.,1.));
#385=DIRECTION('',(0.,1.,0.));
#386=DIRECTION('center_axis',(0.,0.,-1.));
#387=DIRECTION('ref_axis',(-1.,0.,0.));
#388=DIRECTION('',(-1.,0.,0.));
#389=DIRECTION('',(-1.,0.,0.));
#390=DIRECTION('',(0.,1.,0.));
#391=DIRECTION('center_axis',(0.,1.,0.));
#392=DIRECTION('ref_axis',(-7.88762137618672E-16,0.,-1.));
#393=DIRECTION('center_axis',(0.,-1.,0.));
#394=DIRECTION('ref_axis',(-7.88762137618672E-16,0.,-1.));
#395=DIRECTION('center_axis',(0.,-1.,0.));
#396=DIRECTION('ref_axis',(-7.88762137618672E-16,0.,-1.));
#397=DIRECTION('',(0.,1.,0.));
#398=DIRECTION('center_axis',(-1.,0.,0.));
#399=DIRECTION('ref_axis',(0.,0.,1.));
#400=DIRECTION('',(0.,0.,1.));
#401=DIRECTION('',(0.,0.,1.));
#402=DIRECTION('',(0.,1.,0.));
#403=DIRECTION('center_axis',(0.,0.,-1.));
#404=DIRECTION('ref_axis',(-1.,0.,0.));
#405=DIRECTION('',(-1.,0.,0.));
#406=DIRECTION('',(-1.,0.,0.));
#407=DIRECTION('',(0.,1.,0.));
#408=DIRECTION('center_axis',(1.,0.,0.));
#409=DIRECTION('ref_axis',(0.,0.,-1.));
#410=DIRECTION('',(0.,0.,-1.));
#411=DIRECTION('',(0.,0.,-1.));
#412=DIRECTION('',(0.,1.,0.));
#413=DIRECTION('center_axis',(0.,0.,1.));
#414=DIRECTION('ref_axis',(1.,0.,0.));
#415=DIRECTION('',(1.,0.,0.));
#416=DIRECTION('',(1.,0.,0.));
#417=DIRECTION('',(0.,1.,0.));
#418=DIRECTION('center_axis',(0.,1.,0.));
#419=DIRECTION('ref_axis',(0.110333331710975,0.,0.993894640247927));
#420=DIRECTION('center_axis',(0.,-1.,0.));
#421=DIRECTION('ref_axis',(0.110333331710975,0.,0.993894640247927));
#422=DIRECTION('center_axis',(0.,-1.,0.));
#423=DIRECTION('ref_axis',(0.110333331710975,0.,0.993894640247927));
#424=DIRECTION('',(0.,1.,0.));
#425=DIRECTION('center_axis',(0.,0.,-1.));
#426=DIRECTION('ref_axis',(-1.,0.,0.));
#427=DIRECTION('',(-1.,0.,0.));
#428=DIRECTION('',(-1.,0.,0.));
#429=DIRECTION('',(0.,1.,0.));
#430=DIRECTION('center_axis',(1.,0.,0.));
#431=DIRECTION('ref_axis',(0.,0.,-1.));
#432=DIRECTION('',(0.,0.,-1.));
#433=DIRECTION('',(0.,0.,-1.));
#434=DIRECTION('center_axis',(0.,1.,0.));
#435=DIRECTION('ref_axis',(0.,0.,1.));
#436=DIRECTION('center_axis',(0.,1.,0.));
#437=DIRECTION('ref_axis',(0.,0.,1.));
#438=CARTESIAN_POINT('',(0.,0.,0.));
#439=CARTESIAN_POINT('Origin',(8.24884031951962,0.,21.5584561886517));
#440=CARTESIAN_POINT('',(8.24884031951962,0.,21.5584561886517));
#441=CARTESIAN_POINT('',(11.2488403195196,0.,21.5584561886517));
#442=CARTESIAN_POINT('',(8.24884031951962,0.,21.5584561886517));
#443=CARTESIAN_POINT('',(11.2488403195196,10.,21.5584561886517));
#444=CARTESIAN_POINT('',(11.2488403195196,0.,21.5584561886517));
#445=CARTESIAN_POINT('',(8.24884031951962,10.,21.5584561886517));
#446=CARTESIAN_POINT('',(8.24884031951962,10.,21.5584561886517));
#447=CARTESIAN_POINT('',(8.24884031951962,0.,21.5584561886517));
#448=CARTESIAN_POINT('Origin',(8.24884031951962,0.,13.5584561886517));
#449=CARTESIAN_POINT('',(8.24884031951962,0.,13.5584561886517));
#450=CARTESIAN_POINT('',(8.24884031951962,0.,13.5584561886517));
#451=CARTESIAN_POINT('',(8.24884031951962,10.,13.5584561886517));
#452=CARTESIAN_POINT('',(8.24884031951962,10.,13.5584561886517));
#453=CARTESIAN_POINT('',(8.24884031951962,0.,13.5584561886517));
#454=CARTESIAN_POINT('Origin',(4.74884031951961,0.,13.5584561886517));
#455=CARTESIAN_POINT('',(4.74884031951962,0.,10.0584561886517));
#456=CARTESIAN_POINT('Origin',(4.74884031951961,0.,13.5584561886517));
#457=CARTESIAN_POINT('',(4.74884031951962,10.,10.0584561886517));
#458=CARTESIAN_POINT('Origin',(4.74884031951961,10.,13.5584561886517));
#459=CARTESIAN_POINT('',(4.74884031951962,0.,10.0584561886517));
#460=CARTESIAN_POINT('Origin',(-17.0589209505725,0.,10.0584561886517));
#461=CARTESIAN_POINT('',(-17.0589209505725,0.,10.0584561886517));
#462=CARTESIAN_POINT('',(-17.0589209505725,0.,10.0584561886517));
#463=CARTESIAN_POINT('',(-17.0589209505725,10.,10.0584561886517));
#464=CARTESIAN_POINT('',(-17.0589209505725,10.,10.0584561886517));
#465=CARTESIAN_POINT('',(-17.0589209505725,0.,10.0584561886517));
#466=CARTESIAN_POINT('Origin',(-17.0589209505725,0.,-7.28667268637932));
#467=CARTESIAN_POINT('',(-17.0589209505725,0.,-7.28667268637932));
#468=CARTESIAN_POINT('',(-17.0589209505725,0.,-7.28667268637932));
#469=CARTESIAN_POINT('',(-17.0589209505725,10.,-7.28667268637932));
#470=CARTESIAN_POINT('',(-17.0589209505725,10.,-7.28667268637932));
#471=CARTESIAN_POINT('',(-17.0589209505725,0.,-7.28667268637932));
#472=CARTESIAN_POINT('Origin',(4.74884031951962,0.,-7.28667268637932));
#473=CARTESIAN_POINT('',(4.74884031951962,0.,-7.28667268637932));
#474=CARTESIAN_POINT('',(4.74884031951962,0.,-7.28667268637932));
#475=CARTESIAN_POINT('',(4.74884031951962,10.,-7.28667268637932));
#476=CARTESIAN_POINT('',(4.74884031951962,10.,-7.28667268637932));
#477=CARTESIAN_POINT('',(4.74884031951962,0.,-7.28667268637932));
#478=CARTESIAN_POINT('Origin',(4.74884031951961,0.,-10.8055504686503));
#479=CARTESIAN_POINT('',(8.24884031951962,0.,-10.4415438113483));
#480=CARTESIAN_POINT('Origin',(4.74884031951961,0.,-10.8055504686503));
#481=CARTESIAN_POINT('',(8.24884031951962,10.,-10.4415438113483));
#482=CARTESIAN_POINT('Origin',(4.74884031951961,10.,-10.8055504686503));
#483=CARTESIAN_POINT('',(8.24884031951962,0.,-10.4415438113483));
#484=CARTESIAN_POINT('Origin',(8.24884031951962,0.,-18.4415438113483));
#485=CARTESIAN_POINT('',(8.24884031951962,0.,-18.4415438113483));
#486=CARTESIAN_POINT('',(8.24884031951962,0.,-18.4415438113483));
#487=CARTESIAN_POINT('',(8.24884031951962,10.,-18.4415438113483));
#488=CARTESIAN_POINT('',(8.24884031951962,10.,-18.4415438113483));
#489=CARTESIAN_POINT('',(8.24884031951962,0.,-18.4415438113483));
#490=CARTESIAN_POINT('Origin',(11.2488403195196,0.,-18.4415438113483));
#491=CARTESIAN_POINT('',(11.2488403195196,0.,-18.4415438113483));
#492=CARTESIAN_POINT('',(11.2488403195196,0.,-18.4415438113483));
#493=CARTESIAN_POINT('',(11.2488403195196,10.,-18.4415438113483));
#494=CARTESIAN_POINT('',(11.2488403195196,10.,-18.4415438113483));
#495=CARTESIAN_POINT('',(11.2488403195196,0.,-18.4415438113483));
#496=CARTESIAN_POINT('Origin',(11.2488403195196,0.,-3.44154381134828));
#497=CARTESIAN_POINT('',(11.2488403195196,0.,-3.44154381134828));
#498=CARTESIAN_POINT('',(11.2488403195196,0.,-3.44154381134828));
#499=CARTESIAN_POINT('',(11.2488403195196,10.,-3.44154381134828));
#500=CARTESIAN_POINT('',(11.2488403195196,10.,-3.44154381134828));
#501=CARTESIAN_POINT('',(11.2488403195196,0.,-3.44154381134828));
#502=CARTESIAN_POINT('Origin',(8.24884031951962,0.,-3.44154381134828));
#503=CARTESIAN_POINT('',(8.24884031951962,0.,-3.44154381134828));
#504=CARTESIAN_POINT('',(8.24884031951962,0.,-3.44154381134828));
#505=CARTESIAN_POINT('',(8.24884031951962,10.,-3.44154381134828));
#506=CARTESIAN_POINT('',(8.24884031951962,10.,-3.44154381134828));
#507=CARTESIAN_POINT('',(8.24884031951962,0.,-3.44154381134828));
#508=CARTESIAN_POINT('Origin',(8.80389579141275,0.,1.55845618865172));
#509=CARTESIAN_POINT('',(8.24884031951962,0.,6.55845618865172));
#510=CARTESIAN_POINT('Origin',(8.80389579141275,0.,1.55845618865172));
#511=CARTESIAN_POINT('',(8.24884031951962,10.,6.55845618865172));
#512=CARTESIAN_POINT('Origin',(8.80389579141275,10.,1.55845618865172));
#513=CARTESIAN_POINT('',(8.24884031951962,0.,6.55845618865172));
#514=CARTESIAN_POINT('Origin',(11.2488403195196,0.,6.55845618865172));
#515=CARTESIAN_POINT('',(11.2488403195196,0.,6.55845618865172));
#516=CARTESIAN_POINT('',(11.2488403195196,0.,6.55845618865172));
#517=CARTESIAN_POINT('',(11.2488403195196,10.,6.55845618865172));
#518=CARTESIAN_POINT('',(11.2488403195196,10.,6.55845618865172));
#519=CARTESIAN_POINT('',(11.2488403195196,0.,6.55845618865172));
#520=CARTESIAN_POINT('Origin',(11.2488403195196,0.,21.5584561886517));
#521=CARTESIAN_POINT('',(11.2488403195196,0.,21.5584561886517));
#522=CARTESIAN_POINT('',(11.2488403195196,10.,21.5584561886517));
#523=CARTESIAN_POINT('Origin',(-2.90504031552642,10.,1.55845618865172));
#524=CARTESIAN_POINT('Origin',(-2.90504031552642,0.,1.55845618865172));
#525=UNCERTAINTY_MEASURE_WITH_UNIT(LENGTH_MEASURE(0.01),#529,
'DISTANCE_ACCURACY_VALUE',
'Maximum model space distance between geometric entities at asserted c
onnectivities');
#526=UNCERTAINTY_MEASURE_WITH_UNIT(LENGTH_MEASURE(0.01),#529,
'DISTANCE_ACCURACY_VALUE',
'Maximum model space distance between geometric entities at asserted c
onnectivities');
#527=(
GEOMETRIC_REPRESENTATION_CONTEXT(3)
GLOBAL_UNCERTAINTY_ASSIGNED_CONTEXT((#525))
GLOBAL_UNIT_ASSIGNED_CONTEXT((#529,#531,#532))
REPRESENTATION_CONTEXT('','3D')
);
#528=(
GEOMETRIC_REPRESENTATION_CONTEXT(3)
GLOBAL_UNCERTAINTY_ASSIGNED_CONTEXT((#526))
GLOBAL_UNIT_ASSIGNED_CONTEXT((#529,#531,#532))
REPRESENTATION_CONTEXT('','3D')
);
#529=(
LENGTH_UNIT()
NAMED_UNIT(*)
SI_UNIT(.MILLI.,.METRE.)
);
#530=(
LENGTH_UNIT()
NAMED_UNIT(*)
SI_UNIT(.CENTI.,.METRE.)
);
#531=(
NAMED_UNIT(*)
PLANE_ANGLE_UNIT()
SI_UNIT($,.RADIAN.)
);
#532=(
NAMED_UNIT(*)
SI_UNIT($,.STERADIAN.)
SOLID_ANGLE_UNIT()
);
#533=SHAPE_DEFINITION_REPRESENTATION(#534,#535);
#534=PRODUCT_DEFINITION_SHAPE('',$,#537);
#535=SHAPE_REPRESENTATION('',(#333),#527);
#536=PRODUCT_DEFINITION_CONTEXT('part definition',#541,'design');
#537=PRODUCT_DEFINITION('Part13','Part13',#538,#536);
#538=PRODUCT_DEFINITION_FORMATION('',$,#543);
#539=PRODUCT_RELATED_PRODUCT_CATEGORY('Part13','Part13',(#543));
#540=APPLICATION_PROTOCOL_DEFINITION('international standard',
'automotive_design',2009,#541);
#541=APPLICATION_CONTEXT(
'Core Data for Automotive Mechanical Design Process');
#542=PRODUCT_CONTEXT('part definition',#541,'mechanical');
#543=PRODUCT('Part13','Part13',$,(#542));
#544=PRESENTATION_STYLE_ASSIGNMENT((#545));
#545=SURFACE_STYLE_USAGE(.BOTH.,#548);
#546=SURFACE_STYLE_RENDERING_WITH_PROPERTIES($,#552,(#547));
#547=SURFACE_STYLE_TRANSPARENT(0.);
#548=SURFACE_SIDE_STYLE('',(#549,#546));
#549=SURFACE_STYLE_FILL_AREA(#550);
#550=FILL_AREA_STYLE('',(#551));
#551=FILL_AREA_STYLE_COLOUR('',#552);
#552=COLOUR_RGB('',0.749019607843137,0.749019607843137,0.749019607843137);
ENDSEC;
END-ISO-10303-21;
